(module 53261-03 (layer F.Cu) (tedit 0)
  (fp_text reference X1 (at -2.5 -2.875) (layer F.SilkS) hide
    (effects (font (size 1.2065 1.2065) (thickness 0.1016)) (justify right top))
  )
  (fp_text value 53261-03 (at -3.25 3) (layer F.Fab) hide
    (effects (font (size 1.2065 1.2065) (thickness 0.1016)) (justify right top))
  )
  (fp_line (start -2.65 1.375) (end -2.125 1.375) (layer F.SilkS) (width 0.2032))
  (fp_line (start -2.125 1.375) (end 2.125 1.375) (layer F.SilkS) (width 0.2032))
  (fp_line (start 2.125 1.375) (end 2.65 1.375) (layer F.SilkS) (width 0.2032))
  (fp_line (start 2.65 1.375) (end 2.65 -2.625) (layer F.SilkS) (width 0.2032))
  (fp_line (start 2.65 -2.625) (end 2.5 -2.625) (layer F.SilkS) (width 0.2032))
  (fp_line (start 2.5 -2.625) (end -2.5 -2.625) (layer F.SilkS) (width 0.2032))
  (fp_line (start -2.5 -2.625) (end -2.65 -2.625) (layer F.SilkS) (width 0.2032))
  (fp_line (start -2.65 -2.625) (end -2.65 1.375) (layer F.SilkS) (width 0.2032))
  (fp_line (start -2.625 -1.625) (end -2.125 -1.625) (layer F.SilkS) (width 0.0508))
  (fp_line (start -2.125 -1.625) (end -1.875 -1.625) (layer F.SilkS) (width 0.0508))
  (fp_line (start -1.875 -1.625) (end -1.875 -1) (layer F.SilkS) (width 0.0508))
  (fp_line (start -1.875 -1) (end 1.875 -1) (layer F.SilkS) (width 0.0508))
  (fp_line (start 1.875 -1.625) (end 2.125 -1.625) (layer F.SilkS) (width 0.0508))
  (fp_line (start 2.125 -1.625) (end 2.625 -1.625) (layer F.SilkS) (width 0.0508))
  (fp_line (start 1.875 -1.625) (end 1.875 -1) (layer F.SilkS) (width 0.0508))
  (fp_line (start -2.625 0.75) (end -2.125 0.75) (layer F.SilkS) (width 0.0508))
  (fp_line (start -2.125 0.75) (end -2.125 1.375) (layer F.SilkS) (width 0.0508))
  (fp_line (start 2.125 0.75) (end 2.625 0.75) (layer F.SilkS) (width 0.0508))
  (fp_line (start 2.125 0.75) (end 2.125 1.375) (layer F.SilkS) (width 0.0508))
  (fp_line (start -2.125 -1.625) (end -2.125 -2.25) (layer F.SilkS) (width 0.0508))
  (fp_line (start -2.125 -2.25) (end 2.125 -2.25) (layer F.SilkS) (width 0.0508))
  (fp_line (start 2.125 -2.25) (end 2.125 -1.625) (layer F.SilkS) (width 0.0508))
  (fp_line (start -2.125 -2.25) (end -2.5 -2.625) (layer F.SilkS) (width 0.0508))
  (fp_line (start 2.125 -2.25) (end 2.5 -2.625) (layer F.SilkS) (width 0.0508))
  (fp_line (start -1.5 1.25) (end -1.5 0.75) (layer F.SilkS) (width 0.0508))
  (fp_line (start -1.5 0.75) (end -1 0.75) (layer F.SilkS) (width 0.0508))
  (fp_line (start -1 0.75) (end -1 1.25) (layer F.SilkS) (width 0.0508))
  (fp_line (start -0.25 1.25) (end -0.25 0.75) (layer F.SilkS) (width 0.0508))
  (fp_line (start -0.25 0.75) (end 0.25 0.75) (layer F.SilkS) (width 0.0508))
  (fp_line (start 0.25 0.75) (end 0.25 1.25) (layer F.SilkS) (width 0.0508))
  (fp_line (start 1 1.25) (end 1 0.75) (layer F.SilkS) (width 0.0508))
  (fp_line (start 1 0.75) (end 1.5 0.75) (layer F.SilkS) (width 0.0508))
  (fp_line (start 1.5 0.75) (end 1.5 1.25) (layer F.SilkS) (width 0.0508))
  (fp_line (start -2.75 -2.25) (end -4.625 -2.25) (layer F.Fab) (width 0.2032))
  (fp_line (start -4.625 -2.25) (end -4.625 0.75) (layer F.Fab) (width 0.2032))
  (fp_line (start -4.625 0.75) (end -2.75 0.75) (layer F.Fab) (width 0.2032))
  (fp_line (start 2.75 0.75) (end 4.625 0.75) (layer F.Fab) (width 0.2032))
  (fp_line (start 4.625 0.75) (end 4.625 -2.25) (layer F.Fab) (width 0.2032))
  (fp_line (start 4.625 -2.25) (end 2.75 -2.25) (layer F.Fab) (width 0.2032))
  (fp_text user 1 (at 3.125 0.25) (layer F.Fab)
    (effects (font (size 1.83388 1.83388) (thickness 0.154432)) (justify left bottom))
  )
  (fp_poly (pts (xy -1.5 -1) (xy -1 -1) (xy -1 -1.875) (xy -1.5 -1.875)) (layer F.SilkS) (width 0))
  (fp_poly (pts (xy -0.25 -1) (xy 0.25 -1) (xy 0.25 -1.875) (xy -0.25 -1.875)) (layer F.SilkS) (width 0))
  (fp_poly (pts (xy 1 -1) (xy 1.5 -1) (xy 1.5 -1.875) (xy 1 -1.875)) (layer F.SilkS) (width 0))
  (pad 1 smd rect (at 1.25 2.5) (size 0.8 2) (layers F.Cu F.Paste F.Mask)
    (solder_mask_margin 0.1016))
  (pad 2 smd rect (at 0 2.5) (size 0.8 2) (layers F.Cu F.Paste F.Mask)
    (solder_mask_margin 0.1016))
  (pad 3 smd rect (at -1.25 2.5) (size 0.8 2) (layers F.Cu F.Paste F.Mask)
    (solder_mask_margin 0.1016))
  (pad S1 smd rect (at 3.75 -0.625) (size 2.1 3) (layers F.Cu F.Paste F.Mask)
    (solder_mask_margin 0.1016))
  (pad S2 smd rect (at -3.75 -0.625) (size 2.1 3) (layers F.Cu F.Paste F.Mask)
    (solder_mask_margin 0.1016))
)
