(kicad_pcb (version 20171130) (host pcbnew "(5.1.6-0-10_14)")

  (general
    (thickness 1.6)
    (drawings 8)
    (tracks 75)
    (zones 0)
    (modules 12)
    (nets 15)
  )

  (page A4)
  (layers
    (0 Top signal)
    (31 Bottom signal)
    (32 B.Adhes user)
    (33 F.Adhes user)
    (34 B.Paste user)
    (35 F.Paste user)
    (36 B.SilkS user)
    (37 F.SilkS user)
    (38 B.Mask user)
    (39 F.Mask user)
    (40 Dwgs.User user)
    (41 Cmts.User user)
    (42 Eco1.User user)
    (43 Eco2.User user)
    (44 Edge.Cuts user)
    (45 Margin user)
    (46 B.CrtYd user)
    (47 F.CrtYd user)
    (48 B.Fab user)
    (49 F.Fab user)
  )

  (setup
    (last_trace_width 0.25)
    (trace_clearance 0.1524)
    (zone_clearance 0.3048)
    (zone_45_only no)
    (trace_min 0.1524)
    (via_size 0.8)
    (via_drill 0.4)
    (via_min_size 0.4)
    (via_min_drill 0.3)
    (uvia_size 0.3)
    (uvia_drill 0.1)
    (uvias_allowed no)
    (uvia_min_size 0.2)
    (uvia_min_drill 0.1)
    (edge_width 0.05)
    (segment_width 0.2)
    (pcb_text_width 0.3)
    (pcb_text_size 1.5 1.5)
    (mod_edge_width 0.12)
    (mod_text_size 1 1)
    (mod_text_width 0.15)
    (pad_size 1.524 1.524)
    (pad_drill 0.762)
    (pad_to_mask_clearance 0.05)
    (aux_axis_origin 0 0)
    (visible_elements FFFFFF7F)
    (pcbplotparams
      (layerselection 0x010fc_ffffffff)
      (usegerberextensions false)
      (usegerberattributes true)
      (usegerberadvancedattributes true)
      (creategerberjobfile true)
      (excludeedgelayer true)
      (linewidth 0.100000)
      (plotframeref false)
      (viasonmask false)
      (mode 1)
      (useauxorigin false)
      (hpglpennumber 1)
      (hpglpenspeed 20)
      (hpglpendiameter 15.000000)
      (psnegative false)
      (psa4output false)
      (plotreference true)
      (plotvalue true)
      (plotinvisibletext false)
      (padsonsilk false)
      (subtractmaskfromsilk false)
      (outputformat 1)
      (mirror false)
      (drillshape 1)
      (scaleselection 1)
      (outputdirectory ""))
  )

  (net 0 "")
  (net 1 GND)
  (net 2 +5V)
  (net 3 "Net-(JP2-Pad5)")
  (net 4 "Net-(JP2-Pad4)")
  (net 5 "Net-(JP2-Pad3)")
  (net 6 "Net-(C1-Pad1)")
  (net 7 "Net-(JP1-Pad5)")
  (net 8 "Net-(JP1-Pad4)")
  (net 9 "Net-(JP1-Pad3)")
  (net 10 "Net-(JP1-Pad1)")
  (net 11 "Net-(J1-Pad2)")
  (net 12 "Net-(J1-Pad1)")
  (net 13 /V+)
  (net 14 /V-)

  (net_class Default "This is the default net class."
    (clearance 0.1524)
    (trace_width 0.25)
    (via_dia 0.8)
    (via_drill 0.4)
    (uvia_dia 0.3)
    (uvia_drill 0.1)
    (add_net +5V)
    (add_net /V+)
    (add_net /V-)
    (add_net GND)
    (add_net "Net-(C1-Pad1)")
    (add_net "Net-(J1-Pad1)")
    (add_net "Net-(J1-Pad2)")
    (add_net "Net-(JP1-Pad1)")
    (add_net "Net-(JP1-Pad3)")
    (add_net "Net-(JP1-Pad4)")
    (add_net "Net-(JP1-Pad5)")
    (add_net "Net-(JP2-Pad3)")
    (add_net "Net-(JP2-Pad4)")
    (add_net "Net-(JP2-Pad5)")
  )

  (net_class Thin ""
    (clearance 0.1524)
    (trace_width 0.1524)
    (via_dia 0.8)
    (via_drill 0.4)
    (uvia_dia 0.3)
    (uvia_drill 0.1)
  )

  (module Connector_PinHeader_2.00mm:PinHeader_1x05_P2.00mm_Vertical (layer Top) (tedit 59FED667) (tstamp 5EF89948)
    (at 152.4 93.726)
    (descr "Through hole straight pin header, 1x05, 2.00mm pitch, single row")
    (tags "Through hole pin header THT 1x05 2.00mm single row")
    (path /93E45719)
    (fp_text reference JP2 (at 0 -2.06) (layer F.SilkS) hide
      (effects (font (size 1 1) (thickness 0.15)))
    )
    (fp_text value PINHD-1X55X2MM (at 0 10.06) (layer F.Fab) hide
      (effects (font (size 1 1) (thickness 0.15)))
    )
    (fp_text user %R (at 0 4 90) (layer F.Fab)
      (effects (font (size 1 1) (thickness 0.15)))
    )
    (fp_line (start -0.5 -1) (end 1 -1) (layer F.Fab) (width 0.1))
    (fp_line (start 1 -1) (end 1 9) (layer F.Fab) (width 0.1))
    (fp_line (start 1 9) (end -1 9) (layer F.Fab) (width 0.1))
    (fp_line (start -1 9) (end -1 -0.5) (layer F.Fab) (width 0.1))
    (fp_line (start -1 -0.5) (end -0.5 -1) (layer F.Fab) (width 0.1))
    (fp_line (start -1.06 9.06) (end 1.06 9.06) (layer F.SilkS) (width 0.12))
    (fp_line (start -1.06 1) (end -1.06 9.06) (layer F.SilkS) (width 0.12))
    (fp_line (start 1.06 1) (end 1.06 9.06) (layer F.SilkS) (width 0.12))
    (fp_line (start -1.06 1) (end 1.06 1) (layer F.SilkS) (width 0.12))
    (fp_line (start -1.06 0) (end -1.06 -1.06) (layer F.SilkS) (width 0.12))
    (fp_line (start -1.06 -1.06) (end 0 -1.06) (layer F.SilkS) (width 0.12))
    (fp_line (start -1.5 -1.5) (end -1.5 9.5) (layer F.CrtYd) (width 0.05))
    (fp_line (start -1.5 9.5) (end 1.5 9.5) (layer F.CrtYd) (width 0.05))
    (fp_line (start 1.5 9.5) (end 1.5 -1.5) (layer F.CrtYd) (width 0.05))
    (fp_line (start 1.5 -1.5) (end -1.5 -1.5) (layer F.CrtYd) (width 0.05))
    (pad 5 thru_hole oval (at 0 8) (size 1.35 1.35) (drill 0.8) (layers *.Cu *.Mask)
      (net 3 "Net-(JP2-Pad5)"))
    (pad 4 thru_hole oval (at 0 6) (size 1.35 1.35) (drill 0.8) (layers *.Cu *.Mask)
      (net 4 "Net-(JP2-Pad4)"))
    (pad 3 thru_hole oval (at 0 4) (size 1.35 1.35) (drill 0.8) (layers *.Cu *.Mask)
      (net 5 "Net-(JP2-Pad3)"))
    (pad 2 thru_hole oval (at 0 2) (size 1.35 1.35) (drill 0.8) (layers *.Cu *.Mask)
      (net 6 "Net-(C1-Pad1)"))
    (pad 1 thru_hole rect (at 0 0) (size 1.35 1.35) (drill 0.8) (layers *.Cu *.Mask)
      (net 2 +5V))
    (model ${KISYS3DMOD}/Connector_PinHeader_2.00mm.3dshapes/PinHeader_1x05_P2.00mm_Vertical.wrl
      (at (xyz 0 0 0))
      (scale (xyz 1 1 1))
      (rotate (xyz 0 0 0))
    )
  )

  (module Connector_PinHeader_2.00mm:PinHeader_1x05_P2.00mm_Vertical (layer Top) (tedit 59FED667) (tstamp 5EF82367)
    (at 144.78 93.726)
    (descr "Through hole straight pin header, 1x05, 2.00mm pitch, single row")
    (tags "Through hole pin header THT 1x05 2.00mm single row")
    (path /A75A2B47)
    (fp_text reference JP1 (at 0 -2.06) (layer F.SilkS) hide
      (effects (font (size 1 1) (thickness 0.15)))
    )
    (fp_text value PINHD-1X55X2MM (at 0 10.06) (layer F.Fab) hide
      (effects (font (size 1 1) (thickness 0.15)))
    )
    (fp_line (start 1.5 -1.5) (end -1.5 -1.5) (layer F.CrtYd) (width 0.05))
    (fp_line (start 1.5 9.5) (end 1.5 -1.5) (layer F.CrtYd) (width 0.05))
    (fp_line (start -1.5 9.5) (end 1.5 9.5) (layer F.CrtYd) (width 0.05))
    (fp_line (start -1.5 -1.5) (end -1.5 9.5) (layer F.CrtYd) (width 0.05))
    (fp_line (start -1.06 -1.06) (end 0 -1.06) (layer F.SilkS) (width 0.12))
    (fp_line (start -1.06 0) (end -1.06 -1.06) (layer F.SilkS) (width 0.12))
    (fp_line (start -1.06 1) (end 1.06 1) (layer F.SilkS) (width 0.12))
    (fp_line (start 1.06 1) (end 1.06 9.06) (layer F.SilkS) (width 0.12))
    (fp_line (start -1.06 1) (end -1.06 9.06) (layer F.SilkS) (width 0.12))
    (fp_line (start -1.06 9.06) (end 1.06 9.06) (layer F.SilkS) (width 0.12))
    (fp_line (start -1 -0.5) (end -0.5 -1) (layer F.Fab) (width 0.1))
    (fp_line (start -1 9) (end -1 -0.5) (layer F.Fab) (width 0.1))
    (fp_line (start 1 9) (end -1 9) (layer F.Fab) (width 0.1))
    (fp_line (start 1 -1) (end 1 9) (layer F.Fab) (width 0.1))
    (fp_line (start -0.5 -1) (end 1 -1) (layer F.Fab) (width 0.1))
    (fp_text user %R (at 0 4 90) (layer F.Fab)
      (effects (font (size 1 1) (thickness 0.15)))
    )
    (pad 1 thru_hole rect (at 0 0) (size 1.35 1.35) (drill 0.8) (layers *.Cu *.Mask)
      (net 10 "Net-(JP1-Pad1)"))
    (pad 2 thru_hole oval (at 0 2) (size 1.35 1.35) (drill 0.8) (layers *.Cu *.Mask)
      (net 1 GND))
    (pad 3 thru_hole oval (at 0 4) (size 1.35 1.35) (drill 0.8) (layers *.Cu *.Mask)
      (net 9 "Net-(JP1-Pad3)"))
    (pad 4 thru_hole oval (at 0 6) (size 1.35 1.35) (drill 0.8) (layers *.Cu *.Mask)
      (net 8 "Net-(JP1-Pad4)"))
    (pad 5 thru_hole oval (at 0 8) (size 1.35 1.35) (drill 0.8) (layers *.Cu *.Mask)
      (net 7 "Net-(JP1-Pad5)"))
    (model ${KISYS3DMOD}/Connector_PinHeader_2.00mm.3dshapes/PinHeader_1x05_P2.00mm_Vertical.wrl
      (at (xyz 0 0 0))
      (scale (xyz 1 1 1))
      (rotate (xyz 0 0 0))
    )
  )

  (module Package_TO_SOT_SMD:SOT-23-5_HandSoldering (layer Top) (tedit 5A0AB76C) (tstamp 5EF89631)
    (at 147.828 105.41 90)
    (descr "5-pin SOT23 package")
    (tags "SOT-23-5 hand-soldering")
    (path /5EF9E4A1)
    (attr smd)
    (fp_text reference U1 (at 0 -2.9 90) (layer F.SilkS)
      (effects (font (size 1 1) (thickness 0.15)))
    )
    (fp_text value LMV321 (at 0 2.9 90) (layer F.Fab) hide
      (effects (font (size 1 1) (thickness 0.15)))
    )
    (fp_text user %R (at 0 0) (layer F.Fab)
      (effects (font (size 0.5 0.5) (thickness 0.075)))
    )
    (fp_line (start -0.9 1.61) (end 0.9 1.61) (layer F.SilkS) (width 0.12))
    (fp_line (start 0.9 -1.61) (end -1.55 -1.61) (layer F.SilkS) (width 0.12))
    (fp_line (start -0.9 -0.9) (end -0.25 -1.55) (layer F.Fab) (width 0.1))
    (fp_line (start 0.9 -1.55) (end -0.25 -1.55) (layer F.Fab) (width 0.1))
    (fp_line (start -0.9 -0.9) (end -0.9 1.55) (layer F.Fab) (width 0.1))
    (fp_line (start 0.9 1.55) (end -0.9 1.55) (layer F.Fab) (width 0.1))
    (fp_line (start 0.9 -1.55) (end 0.9 1.55) (layer F.Fab) (width 0.1))
    (fp_line (start -2.38 -1.8) (end 2.38 -1.8) (layer F.CrtYd) (width 0.05))
    (fp_line (start -2.38 -1.8) (end -2.38 1.8) (layer F.CrtYd) (width 0.05))
    (fp_line (start 2.38 1.8) (end 2.38 -1.8) (layer F.CrtYd) (width 0.05))
    (fp_line (start 2.38 1.8) (end -2.38 1.8) (layer F.CrtYd) (width 0.05))
    (pad 5 smd rect (at 1.35 -0.95 90) (size 1.56 0.65) (layers Top F.Paste F.Mask)
      (net 2 +5V))
    (pad 4 smd rect (at 1.35 0.95 90) (size 1.56 0.65) (layers Top F.Paste F.Mask)
      (net 14 /V-))
    (pad 3 smd rect (at -1.35 0.95 90) (size 1.56 0.65) (layers Top F.Paste F.Mask)
      (net 14 /V-))
    (pad 2 smd rect (at -1.35 0 90) (size 1.56 0.65) (layers Top F.Paste F.Mask)
      (net 1 GND))
    (pad 1 smd rect (at -1.35 -0.95 90) (size 1.56 0.65) (layers Top F.Paste F.Mask)
      (net 13 /V+))
    (model ${KISYS3DMOD}/Package_TO_SOT_SMD.3dshapes/SOT-23-5.wrl
      (at (xyz 0 0 0))
      (scale (xyz 1 1 1))
      (rotate (xyz 0 0 0))
    )
  )

  (module Resistor_SMD:R_0805_2012Metric (layer Top) (tedit 5B36C52B) (tstamp 5EF82401)
    (at 148.5391 96.6166 270)
    (descr "Resistor SMD 0805 (2012 Metric), square (rectangular) end terminal, IPC_7351 nominal, (Body size source: https://docs.google.com/spreadsheets/d/1BsfQQcO9C6DZCsRaXUlFlo91Tg2WpOkGARC1WS5S8t0/edit?usp=sharing), generated with kicad-footprint-generator")
    (tags resistor)
    (path /24F7EBBF)
    (attr smd)
    (fp_text reference R5 (at 0 -1.65 90) (layer F.SilkS)
      (effects (font (size 1 1) (thickness 0.15)))
    )
    (fp_text value 3k3 (at 0 1.65 90) (layer F.Fab)
      (effects (font (size 1 1) (thickness 0.15)))
    )
    (fp_text user %R (at 0 0 90) (layer F.Fab)
      (effects (font (size 0.5 0.5) (thickness 0.08)))
    )
    (fp_line (start -1 0.6) (end -1 -0.6) (layer F.Fab) (width 0.1))
    (fp_line (start -1 -0.6) (end 1 -0.6) (layer F.Fab) (width 0.1))
    (fp_line (start 1 -0.6) (end 1 0.6) (layer F.Fab) (width 0.1))
    (fp_line (start 1 0.6) (end -1 0.6) (layer F.Fab) (width 0.1))
    (fp_line (start -0.258578 -0.71) (end 0.258578 -0.71) (layer F.SilkS) (width 0.12))
    (fp_line (start -0.258578 0.71) (end 0.258578 0.71) (layer F.SilkS) (width 0.12))
    (fp_line (start -1.68 0.95) (end -1.68 -0.95) (layer F.CrtYd) (width 0.05))
    (fp_line (start -1.68 -0.95) (end 1.68 -0.95) (layer F.CrtYd) (width 0.05))
    (fp_line (start 1.68 -0.95) (end 1.68 0.95) (layer F.CrtYd) (width 0.05))
    (fp_line (start 1.68 0.95) (end -1.68 0.95) (layer F.CrtYd) (width 0.05))
    (pad 2 smd roundrect (at 0.9375 0 270) (size 0.975 1.4) (layers Top F.Paste F.Mask) (roundrect_rratio 0.25)
      (net 14 /V-))
    (pad 1 smd roundrect (at -0.9375 0 270) (size 0.975 1.4) (layers Top F.Paste F.Mask) (roundrect_rratio 0.25)
      (net 6 "Net-(C1-Pad1)"))
    (model ${KISYS3DMOD}/Resistor_SMD.3dshapes/R_0805_2012Metric.wrl
      (at (xyz 0 0 0))
      (scale (xyz 1 1 1))
      (rotate (xyz 0 0 0))
    )
  )

  (module Resistor_SMD:R_0805_2012Metric (layer Top) (tedit 5B36C52B) (tstamp 5EF823F3)
    (at 149.8091 90.2666 270)
    (descr "Resistor SMD 0805 (2012 Metric), square (rectangular) end terminal, IPC_7351 nominal, (Body size source: https://docs.google.com/spreadsheets/d/1BsfQQcO9C6DZCsRaXUlFlo91Tg2WpOkGARC1WS5S8t0/edit?usp=sharing), generated with kicad-footprint-generator")
    (tags resistor)
    (path /304D48AD)
    (attr smd)
    (fp_text reference R4 (at 0 -1.65 90) (layer F.SilkS)
      (effects (font (size 1 1) (thickness 0.15)))
    )
    (fp_text value 10k (at 0 1.65 90) (layer F.Fab)
      (effects (font (size 1 1) (thickness 0.15)))
    )
    (fp_text user %R (at 0 0 90) (layer F.Fab)
      (effects (font (size 0.5 0.5) (thickness 0.08)))
    )
    (fp_line (start -1 0.6) (end -1 -0.6) (layer F.Fab) (width 0.1))
    (fp_line (start -1 -0.6) (end 1 -0.6) (layer F.Fab) (width 0.1))
    (fp_line (start 1 -0.6) (end 1 0.6) (layer F.Fab) (width 0.1))
    (fp_line (start 1 0.6) (end -1 0.6) (layer F.Fab) (width 0.1))
    (fp_line (start -0.258578 -0.71) (end 0.258578 -0.71) (layer F.SilkS) (width 0.12))
    (fp_line (start -0.258578 0.71) (end 0.258578 0.71) (layer F.SilkS) (width 0.12))
    (fp_line (start -1.68 0.95) (end -1.68 -0.95) (layer F.CrtYd) (width 0.05))
    (fp_line (start -1.68 -0.95) (end 1.68 -0.95) (layer F.CrtYd) (width 0.05))
    (fp_line (start 1.68 -0.95) (end 1.68 0.95) (layer F.CrtYd) (width 0.05))
    (fp_line (start 1.68 0.95) (end -1.68 0.95) (layer F.CrtYd) (width 0.05))
    (pad 2 smd roundrect (at 0.9375 0 270) (size 0.975 1.4) (layers Top F.Paste F.Mask) (roundrect_rratio 0.25)
      (net 6 "Net-(C1-Pad1)"))
    (pad 1 smd roundrect (at -0.9375 0 270) (size 0.975 1.4) (layers Top F.Paste F.Mask) (roundrect_rratio 0.25)
      (net 1 GND))
    (model ${KISYS3DMOD}/Resistor_SMD.3dshapes/R_0805_2012Metric.wrl
      (at (xyz 0 0 0))
      (scale (xyz 1 1 1))
      (rotate (xyz 0 0 0))
    )
  )

  (module Resistor_SMD:R_0805_2012Metric (layer Top) (tedit 5B36C52B) (tstamp 5EF8AA33)
    (at 146.812 110.6655 270)
    (descr "Resistor SMD 0805 (2012 Metric), square (rectangular) end terminal, IPC_7351 nominal, (Body size source: https://docs.google.com/spreadsheets/d/1BsfQQcO9C6DZCsRaXUlFlo91Tg2WpOkGARC1WS5S8t0/edit?usp=sharing), generated with kicad-footprint-generator")
    (tags resistor)
    (path /33D130BE)
    (attr smd)
    (fp_text reference R3 (at -0.9375 4.318 90) (layer F.SilkS)
      (effects (font (size 1 1) (thickness 0.15)))
    )
    (fp_text value 10k (at 0 1.65 90) (layer F.Fab) hide
      (effects (font (size 1 1) (thickness 0.15)))
    )
    (fp_text user %R (at 0 0 90) (layer F.Fab)
      (effects (font (size 0.5 0.5) (thickness 0.08)))
    )
    (fp_line (start -1 0.6) (end -1 -0.6) (layer F.Fab) (width 0.1))
    (fp_line (start -1 -0.6) (end 1 -0.6) (layer F.Fab) (width 0.1))
    (fp_line (start 1 -0.6) (end 1 0.6) (layer F.Fab) (width 0.1))
    (fp_line (start 1 0.6) (end -1 0.6) (layer F.Fab) (width 0.1))
    (fp_line (start -0.258578 -0.71) (end 0.258578 -0.71) (layer F.SilkS) (width 0.12))
    (fp_line (start -0.258578 0.71) (end 0.258578 0.71) (layer F.SilkS) (width 0.12))
    (fp_line (start -1.68 0.95) (end -1.68 -0.95) (layer F.CrtYd) (width 0.05))
    (fp_line (start -1.68 -0.95) (end 1.68 -0.95) (layer F.CrtYd) (width 0.05))
    (fp_line (start 1.68 -0.95) (end 1.68 0.95) (layer F.CrtYd) (width 0.05))
    (fp_line (start 1.68 0.95) (end -1.68 0.95) (layer F.CrtYd) (width 0.05))
    (pad 2 smd roundrect (at 0.9375 0 270) (size 0.975 1.4) (layers Top F.Paste F.Mask) (roundrect_rratio 0.25)
      (net 11 "Net-(J1-Pad2)"))
    (pad 1 smd roundrect (at -0.9375 0 270) (size 0.975 1.4) (layers Top F.Paste F.Mask) (roundrect_rratio 0.25)
      (net 13 /V+))
    (model ${KISYS3DMOD}/Resistor_SMD.3dshapes/R_0805_2012Metric.wrl
      (at (xyz 0 0 0))
      (scale (xyz 1 1 1))
      (rotate (xyz 0 0 0))
    )
  )

  (module Resistor_SMD:R_0805_2012Metric (layer Top) (tedit 5B36C52B) (tstamp 5EF8A868)
    (at 149.352 110.6655 270)
    (descr "Resistor SMD 0805 (2012 Metric), square (rectangular) end terminal, IPC_7351 nominal, (Body size source: https://docs.google.com/spreadsheets/d/1BsfQQcO9C6DZCsRaXUlFlo91Tg2WpOkGARC1WS5S8t0/edit?usp=sharing), generated with kicad-footprint-generator")
    (tags resistor)
    (path /8E8A2486)
    (attr smd)
    (fp_text reference R2 (at -0.6835 -4.318 90) (layer F.SilkS)
      (effects (font (size 1 1) (thickness 0.15)))
    )
    (fp_text value 4k7 (at 0 1.65 90) (layer F.Fab) hide
      (effects (font (size 1 1) (thickness 0.15)))
    )
    (fp_text user %R (at -0.0785 0 90) (layer F.Fab)
      (effects (font (size 0.5 0.5) (thickness 0.08)))
    )
    (fp_line (start -1 0.6) (end -1 -0.6) (layer F.Fab) (width 0.1))
    (fp_line (start -1 -0.6) (end 1 -0.6) (layer F.Fab) (width 0.1))
    (fp_line (start 1 -0.6) (end 1 0.6) (layer F.Fab) (width 0.1))
    (fp_line (start 1 0.6) (end -1 0.6) (layer F.Fab) (width 0.1))
    (fp_line (start -0.258578 -0.71) (end 0.258578 -0.71) (layer F.SilkS) (width 0.12))
    (fp_line (start -0.258578 0.71) (end 0.258578 0.71) (layer F.SilkS) (width 0.12))
    (fp_line (start -1.68 0.95) (end -1.68 -0.95) (layer F.CrtYd) (width 0.05))
    (fp_line (start -1.68 -0.95) (end 1.68 -0.95) (layer F.CrtYd) (width 0.05))
    (fp_line (start 1.68 -0.95) (end 1.68 0.95) (layer F.CrtYd) (width 0.05))
    (fp_line (start 1.68 0.95) (end -1.68 0.95) (layer F.CrtYd) (width 0.05))
    (pad 2 smd roundrect (at 0.9375 0 270) (size 0.975 1.4) (layers Top F.Paste F.Mask) (roundrect_rratio 0.25)
      (net 11 "Net-(J1-Pad2)"))
    (pad 1 smd roundrect (at -0.9375 0 270) (size 0.975 1.4) (layers Top F.Paste F.Mask) (roundrect_rratio 0.25)
      (net 1 GND))
    (model ${KISYS3DMOD}/Resistor_SMD.3dshapes/R_0805_2012Metric.wrl
      (at (xyz 0 0 0))
      (scale (xyz 1 1 1))
      (rotate (xyz 0 0 0))
    )
  )

  (module Resistor_SMD:R_0805_2012Metric (layer Top) (tedit 5B36C52B) (tstamp 5EF823C9)
    (at 144.272 110.6655 270)
    (descr "Resistor SMD 0805 (2012 Metric), square (rectangular) end terminal, IPC_7351 nominal, (Body size source: https://docs.google.com/spreadsheets/d/1BsfQQcO9C6DZCsRaXUlFlo91Tg2WpOkGARC1WS5S8t0/edit?usp=sharing), generated with kicad-footprint-generator")
    (tags resistor)
    (path /85A54EB2)
    (attr smd)
    (fp_text reference R1 (at -0.9375 3.048 90) (layer F.SilkS)
      (effects (font (size 1 1) (thickness 0.15)))
    )
    (fp_text value 500k (at 0 1.65 90) (layer F.Fab) hide
      (effects (font (size 1 1) (thickness 0.15)))
    )
    (fp_text user %R (at 0 0 90) (layer F.Fab)
      (effects (font (size 0.5 0.5) (thickness 0.08)))
    )
    (fp_line (start -1 0.6) (end -1 -0.6) (layer F.Fab) (width 0.1))
    (fp_line (start -1 -0.6) (end 1 -0.6) (layer F.Fab) (width 0.1))
    (fp_line (start 1 -0.6) (end 1 0.6) (layer F.Fab) (width 0.1))
    (fp_line (start 1 0.6) (end -1 0.6) (layer F.Fab) (width 0.1))
    (fp_line (start -0.258578 -0.71) (end 0.258578 -0.71) (layer F.SilkS) (width 0.12))
    (fp_line (start -0.258578 0.71) (end 0.258578 0.71) (layer F.SilkS) (width 0.12))
    (fp_line (start -1.68 0.95) (end -1.68 -0.95) (layer F.CrtYd) (width 0.05))
    (fp_line (start -1.68 -0.95) (end 1.68 -0.95) (layer F.CrtYd) (width 0.05))
    (fp_line (start 1.68 -0.95) (end 1.68 0.95) (layer F.CrtYd) (width 0.05))
    (fp_line (start 1.68 0.95) (end -1.68 0.95) (layer F.CrtYd) (width 0.05))
    (pad 2 smd roundrect (at 0.9375 0 270) (size 0.975 1.4) (layers Top F.Paste F.Mask) (roundrect_rratio 0.25)
      (net 12 "Net-(J1-Pad1)"))
    (pad 1 smd roundrect (at -0.9375 0 270) (size 0.975 1.4) (layers Top F.Paste F.Mask) (roundrect_rratio 0.25)
      (net 1 GND))
    (model ${KISYS3DMOD}/Resistor_SMD.3dshapes/R_0805_2012Metric.wrl
      (at (xyz 0 0 0))
      (scale (xyz 1 1 1))
      (rotate (xyz 0 0 0))
    )
  )

  (module Capacitor_SMD:C_0805_2012Metric (layer Top) (tedit 5B36C52B) (tstamp 5EF82348)
    (at 151.892 110.6655 90)
    (descr "Capacitor SMD 0805 (2012 Metric), square (rectangular) end terminal, IPC_7351 nominal, (Body size source: https://docs.google.com/spreadsheets/d/1BsfQQcO9C6DZCsRaXUlFlo91Tg2WpOkGARC1WS5S8t0/edit?usp=sharing), generated with kicad-footprint-generator")
    (tags capacitor)
    (path /03B11DE5)
    (attr smd)
    (fp_text reference C2 (at 0.6835 3.048 90) (layer F.SilkS)
      (effects (font (size 1 1) (thickness 0.15)))
    )
    (fp_text value 10uF (at -1.0945 1.65 90) (layer F.Fab) hide
      (effects (font (size 1 1) (thickness 0.15)))
    )
    (fp_text user %R (at 0 0 90) (layer F.Fab)
      (effects (font (size 0.5 0.5) (thickness 0.08)))
    )
    (fp_line (start -1 0.6) (end -1 -0.6) (layer F.Fab) (width 0.1))
    (fp_line (start -1 -0.6) (end 1 -0.6) (layer F.Fab) (width 0.1))
    (fp_line (start 1 -0.6) (end 1 0.6) (layer F.Fab) (width 0.1))
    (fp_line (start 1 0.6) (end -1 0.6) (layer F.Fab) (width 0.1))
    (fp_line (start -0.258578 -0.71) (end 0.258578 -0.71) (layer F.SilkS) (width 0.12))
    (fp_line (start -0.258578 0.71) (end 0.258578 0.71) (layer F.SilkS) (width 0.12))
    (fp_line (start -1.68 0.95) (end -1.68 -0.95) (layer F.CrtYd) (width 0.05))
    (fp_line (start -1.68 -0.95) (end 1.68 -0.95) (layer F.CrtYd) (width 0.05))
    (fp_line (start 1.68 -0.95) (end 1.68 0.95) (layer F.CrtYd) (width 0.05))
    (fp_line (start 1.68 0.95) (end -1.68 0.95) (layer F.CrtYd) (width 0.05))
    (pad 2 smd roundrect (at 0.9375 0 90) (size 0.975 1.4) (layers Top F.Paste F.Mask) (roundrect_rratio 0.25)
      (net 1 GND))
    (pad 1 smd roundrect (at -0.9375 0 90) (size 0.975 1.4) (layers Top F.Paste F.Mask) (roundrect_rratio 0.25)
      (net 2 +5V))
    (model ${KISYS3DMOD}/Capacitor_SMD.3dshapes/C_0805_2012Metric.wrl
      (at (xyz 0 0 0))
      (scale (xyz 1 1 1))
      (rotate (xyz 0 0 0))
    )
  )

  (module Capacitor_SMD:C_0805_2012Metric (layer Top) (tedit 5B36C52B) (tstamp 5EF8233A)
    (at 147.2691 90.2666 90)
    (descr "Capacitor SMD 0805 (2012 Metric), square (rectangular) end terminal, IPC_7351 nominal, (Body size source: https://docs.google.com/spreadsheets/d/1BsfQQcO9C6DZCsRaXUlFlo91Tg2WpOkGARC1WS5S8t0/edit?usp=sharing), generated with kicad-footprint-generator")
    (tags capacitor)
    (path /E6F55D96)
    (attr smd)
    (fp_text reference C1 (at 0 -1.65 90) (layer F.SilkS)
      (effects (font (size 1 1) (thickness 0.15)))
    )
    (fp_text value 100nF (at 0 1.65 90) (layer F.Fab)
      (effects (font (size 1 1) (thickness 0.15)))
    )
    (fp_text user %R (at 0 0 90) (layer F.Fab)
      (effects (font (size 0.5 0.5) (thickness 0.08)))
    )
    (fp_line (start -1 0.6) (end -1 -0.6) (layer F.Fab) (width 0.1))
    (fp_line (start -1 -0.6) (end 1 -0.6) (layer F.Fab) (width 0.1))
    (fp_line (start 1 -0.6) (end 1 0.6) (layer F.Fab) (width 0.1))
    (fp_line (start 1 0.6) (end -1 0.6) (layer F.Fab) (width 0.1))
    (fp_line (start -0.258578 -0.71) (end 0.258578 -0.71) (layer F.SilkS) (width 0.12))
    (fp_line (start -0.258578 0.71) (end 0.258578 0.71) (layer F.SilkS) (width 0.12))
    (fp_line (start -1.68 0.95) (end -1.68 -0.95) (layer F.CrtYd) (width 0.05))
    (fp_line (start -1.68 -0.95) (end 1.68 -0.95) (layer F.CrtYd) (width 0.05))
    (fp_line (start 1.68 -0.95) (end 1.68 0.95) (layer F.CrtYd) (width 0.05))
    (fp_line (start 1.68 0.95) (end -1.68 0.95) (layer F.CrtYd) (width 0.05))
    (pad 2 smd roundrect (at 0.9375 0 90) (size 0.975 1.4) (layers Top F.Paste F.Mask) (roundrect_rratio 0.25)
      (net 1 GND))
    (pad 1 smd roundrect (at -0.9375 0 90) (size 0.975 1.4) (layers Top F.Paste F.Mask) (roundrect_rratio 0.25)
      (net 6 "Net-(C1-Pad1)"))
    (model ${KISYS3DMOD}/Capacitor_SMD.3dshapes/C_0805_2012Metric.wrl
      (at (xyz 0 0 0))
      (scale (xyz 1 1 1))
      (rotate (xyz 0 0 0))
    )
  )

  (module Connector_JST:JST_XH_S3B-XH-A_1x03_P2.50mm_Horizontal (layer Top) (tedit 5C281475) (tstamp 5EF83177)
    (at 145.876 116.078)
    (descr "JST XH series connector, S3B-XH-A (http://www.jst-mfg.com/product/pdf/eng/eXH.pdf), generated with kicad-footprint-generator")
    (tags "connector JST XH horizontal")
    (path /5EF97311)
    (fp_text reference J1 (at 9.064 -1.778) (layer F.SilkS)
      (effects (font (size 1 1) (thickness 0.15)))
    )
    (fp_text value Conn_01x03_Male (at 2.5 10.4) (layer F.Fab)
      (effects (font (size 1 1) (thickness 0.15)))
    )
    (fp_text user %R (at 2.5 3.45) (layer F.Fab)
      (effects (font (size 1 1) (thickness 0.15)))
    )
    (fp_line (start -2.95 -2.8) (end -2.95 9.7) (layer F.CrtYd) (width 0.05))
    (fp_line (start -2.95 9.7) (end 7.95 9.7) (layer F.CrtYd) (width 0.05))
    (fp_line (start 7.95 9.7) (end 7.95 -2.8) (layer F.CrtYd) (width 0.05))
    (fp_line (start 7.95 -2.8) (end -2.95 -2.8) (layer F.CrtYd) (width 0.05))
    (fp_line (start 2.5 9.31) (end -2.56 9.31) (layer F.SilkS) (width 0.12))
    (fp_line (start -2.56 9.31) (end -2.56 -2.41) (layer F.SilkS) (width 0.12))
    (fp_line (start -2.56 -2.41) (end -1.14 -2.41) (layer F.SilkS) (width 0.12))
    (fp_line (start -1.14 -2.41) (end -1.14 2.09) (layer F.SilkS) (width 0.12))
    (fp_line (start -1.14 2.09) (end 2.5 2.09) (layer F.SilkS) (width 0.12))
    (fp_line (start 2.5 9.31) (end 7.56 9.31) (layer F.SilkS) (width 0.12))
    (fp_line (start 7.56 9.31) (end 7.56 -2.41) (layer F.SilkS) (width 0.12))
    (fp_line (start 7.56 -2.41) (end 6.14 -2.41) (layer F.SilkS) (width 0.12))
    (fp_line (start 6.14 -2.41) (end 6.14 2.09) (layer F.SilkS) (width 0.12))
    (fp_line (start 6.14 2.09) (end 2.5 2.09) (layer F.SilkS) (width 0.12))
    (fp_line (start 2.5 9.2) (end -2.45 9.2) (layer F.Fab) (width 0.1))
    (fp_line (start -2.45 9.2) (end -2.45 -2.3) (layer F.Fab) (width 0.1))
    (fp_line (start -2.45 -2.3) (end -1.25 -2.3) (layer F.Fab) (width 0.1))
    (fp_line (start -1.25 -2.3) (end -1.25 2.2) (layer F.Fab) (width 0.1))
    (fp_line (start -1.25 2.2) (end 2.5 2.2) (layer F.Fab) (width 0.1))
    (fp_line (start 2.5 9.2) (end 7.45 9.2) (layer F.Fab) (width 0.1))
    (fp_line (start 7.45 9.2) (end 7.45 -2.3) (layer F.Fab) (width 0.1))
    (fp_line (start 7.45 -2.3) (end 6.25 -2.3) (layer F.Fab) (width 0.1))
    (fp_line (start 6.25 -2.3) (end 6.25 2.2) (layer F.Fab) (width 0.1))
    (fp_line (start 6.25 2.2) (end 2.5 2.2) (layer F.Fab) (width 0.1))
    (fp_line (start -0.25 3.2) (end -0.25 8.7) (layer F.SilkS) (width 0.12))
    (fp_line (start -0.25 8.7) (end 0.25 8.7) (layer F.SilkS) (width 0.12))
    (fp_line (start 0.25 8.7) (end 0.25 3.2) (layer F.SilkS) (width 0.12))
    (fp_line (start 0.25 3.2) (end -0.25 3.2) (layer F.SilkS) (width 0.12))
    (fp_line (start 2.25 3.2) (end 2.25 8.7) (layer F.SilkS) (width 0.12))
    (fp_line (start 2.25 8.7) (end 2.75 8.7) (layer F.SilkS) (width 0.12))
    (fp_line (start 2.75 8.7) (end 2.75 3.2) (layer F.SilkS) (width 0.12))
    (fp_line (start 2.75 3.2) (end 2.25 3.2) (layer F.SilkS) (width 0.12))
    (fp_line (start 4.75 3.2) (end 4.75 8.7) (layer F.SilkS) (width 0.12))
    (fp_line (start 4.75 8.7) (end 5.25 8.7) (layer F.SilkS) (width 0.12))
    (fp_line (start 5.25 8.7) (end 5.25 3.2) (layer F.SilkS) (width 0.12))
    (fp_line (start 5.25 3.2) (end 4.75 3.2) (layer F.SilkS) (width 0.12))
    (fp_line (start 0 -1.5) (end -0.3 -2.1) (layer F.SilkS) (width 0.12))
    (fp_line (start -0.3 -2.1) (end 0.3 -2.1) (layer F.SilkS) (width 0.12))
    (fp_line (start 0.3 -2.1) (end 0 -1.5) (layer F.SilkS) (width 0.12))
    (fp_line (start -0.625 2.2) (end 0 1.2) (layer F.Fab) (width 0.1))
    (fp_line (start 0 1.2) (end 0.625 2.2) (layer F.Fab) (width 0.1))
    (pad 3 thru_hole oval (at 5 0) (size 1.7 1.95) (drill 0.95) (layers *.Cu *.Mask)
      (net 2 +5V))
    (pad 2 thru_hole oval (at 2.5 0) (size 1.7 1.95) (drill 0.95) (layers *.Cu *.Mask)
      (net 11 "Net-(J1-Pad2)"))
    (pad 1 thru_hole roundrect (at 0 0) (size 1.7 1.95) (drill 0.95) (layers *.Cu *.Mask) (roundrect_rratio 0.147059)
      (net 12 "Net-(J1-Pad1)"))
    (model ${KISYS3DMOD}/Connector_JST.3dshapes/JST_XH_S3B-XH-A_1x03_P2.50mm_Horizontal.wrl
      (at (xyz 0 0 0))
      (scale (xyz 1 1 1))
      (rotate (xyz 0 0 0))
    )
  )

  (module Turbidity_Sensor:ADAFRUIT_TRINKET (layer Top) (tedit 0) (tstamp 5EF8240F)
    (at 142.1891 92.8066)
    (path /4D826FCC)
    (fp_text reference U$1 (at 0 0) (layer F.SilkS) hide
      (effects (font (size 1.27 1.27) (thickness 0.15)))
    )
    (fp_text value ADAFRUIT_TRINKET (at 0 0) (layer F.SilkS) hide
      (effects (font (size 1.27 1.27) (thickness 0.15)))
    )
    (pad P$10 thru_hole circle (at 12.7 10.16) (size 1.508 1.508) (drill 1) (layers *.Cu *.Mask)
      (net 3 "Net-(JP2-Pad5)") (solder_mask_margin 0.1016))
    (pad P$9 thru_hole circle (at 12.7 7.62) (size 1.508 1.508) (drill 1) (layers *.Cu *.Mask)
      (net 4 "Net-(JP2-Pad4)") (solder_mask_margin 0.1016))
    (pad P$8 thru_hole circle (at 12.7 5.08) (size 1.508 1.508) (drill 1) (layers *.Cu *.Mask)
      (net 5 "Net-(JP2-Pad3)") (solder_mask_margin 0.1016))
    (pad P$7 thru_hole circle (at 12.7 2.54) (size 1.508 1.508) (drill 1) (layers *.Cu *.Mask)
      (net 6 "Net-(C1-Pad1)") (solder_mask_margin 0.1016))
    (pad P$6 thru_hole circle (at 12.7 0) (size 1.508 1.508) (drill 1) (layers *.Cu *.Mask)
      (net 2 +5V) (solder_mask_margin 0.1016))
    (pad "" np_thru_hole circle (at 0.635 13.97) (size 2.19964 2.19964) (drill 2.19964) (layers *.Cu *.Mask))
    (pad "" np_thru_hole circle (at 12.065 13.97) (size 2.19964 2.19964) (drill 2.19964) (layers *.Cu *.Mask))
    (pad "" np_thru_hole circle (at 12.446 -2.54) (size 2.19964 2.19964) (drill 2.19964) (layers *.Cu *.Mask))
    (pad "" np_thru_hole circle (at 0.254 -2.54) (size 2.19964 2.19964) (drill 2.19964) (layers *.Cu *.Mask))
    (pad P$5 thru_hole circle (at 0 10.16) (size 1.508 1.508) (drill 1) (layers *.Cu *.Mask)
      (net 7 "Net-(JP1-Pad5)") (solder_mask_margin 0.1016))
    (pad P$4 thru_hole circle (at 0 7.62) (size 1.508 1.508) (drill 1) (layers *.Cu *.Mask)
      (net 8 "Net-(JP1-Pad4)") (solder_mask_margin 0.1016))
    (pad P$3 thru_hole circle (at 0 5.08) (size 1.508 1.508) (drill 1) (layers *.Cu *.Mask)
      (net 9 "Net-(JP1-Pad3)") (solder_mask_margin 0.1016))
    (pad P$2 thru_hole circle (at 0 2.54) (size 1.508 1.508) (drill 1) (layers *.Cu *.Mask)
      (net 1 GND) (solder_mask_margin 0.1016))
    (pad P$1 thru_hole circle (at 0 0) (size 1.508 1.508) (drill 1) (layers *.Cu *.Mask)
      (net 10 "Net-(JP1-Pad1)") (solder_mask_margin 0.1016))
  )

  (gr_line (start 139.9031 123.1596) (end 157.0991 123.2866) (layer Edge.Cuts) (width 0.05) (tstamp 32E9EF0))
  (gr_line (start 157.0991 123.2866) (end 157.0991 86.7206) (layer Edge.Cuts) (width 0.05) (tstamp 32E9E60))
  (gr_line (start 157.0991 86.7206) (end 139.9031 86.7206) (layer Edge.Cuts) (width 0.05) (tstamp 32E9DD0))
  (gr_line (start 139.9031 86.7206) (end 139.9031 123.1596) (layer Edge.Cuts) (width 0.05) (tstamp 32E9D40))
  (gr_line (start 140.1571 86.9646) (end 156.9211 86.9646) (layer Edge.Cuts) (width 0.1524) (tstamp 32E9CB0))
  (gr_line (start 156.9211 86.9646) (end 156.9211 123.0326) (layer Edge.Cuts) (width 0.1524) (tstamp 32E9C20))
  (gr_line (start 156.9211 123.0326) (end 140.1571 123.0326) (layer Edge.Cuts) (width 0.1524) (tstamp 32E9A70))
  (gr_line (start 140.1571 123.0326) (end 140.1571 86.9646) (layer Edge.Cuts) (width 0.1524) (tstamp 32E9B90))

  (segment (start 144.7291 95.8866) (end 145.4591 95.8866) (width 0.1524) (layer Top) (net 1) (tstamp 32C8090))
  (segment (start 145.4591 95.8866) (end 146.5071 94.8386) (width 0.1524) (layer Top) (net 1) (tstamp 32C8120))
  (segment (start 146.7611 93.5686) (end 146.7611 94.5846) (width 0.1524) (layer Top) (net 1) (tstamp 32C81B0))
  (segment (start 146.7611 93.5686) (end 144.7291 91.5366) (width 0.1524) (layer Top) (net 1) (tstamp 32C8240))
  (segment (start 144.7291 91.5366) (end 144.7291 90.0126) (width 0.1524) (layer Top) (net 1) (tstamp 32C82D0))
  (segment (start 145.4251 89.3166) (end 147.2691 89.3166) (width 0.1524) (layer Top) (net 1) (tstamp 32C8360))
  (segment (start 144.7291 90.0126) (end 145.4251 89.3166) (width 0.1524) (layer Top) (net 1) (tstamp 32C83F0))
  (segment (start 149.8091 89.3166) (end 147.2691 89.3166) (width 0.1524) (layer Top) (net 1) (tstamp 32C8480))
  (segment (start 147.7771 100.4266) (end 146.5071 99.1566) (width 0.1524) (layer Top) (net 1) (tstamp 32C86C0))
  (segment (start 146.5071 99.1566) (end 146.5071 94.8386) (width 0.1524) (layer Top) (net 1) (tstamp 32C8750))
  (segment (start 146.5071 94.8386) (end 146.7611 94.5846) (width 0.1524) (layer Top) (net 1) (tstamp 32C87E0))
  (segment (start 146.5071 99.1566) (end 145.9991 99.6646) (width 0.1524) (layer Top) (net 1) (tstamp 32C8CF0))
  (segment (start 142.1891 95.3466) (end 143.2051 95.3466) (width 0.1524) (layer Top) (net 1) (tstamp 32C8F30))
  (segment (start 143.2051 95.8866) (end 144.7291 95.8866) (width 0.1524) (layer Top) (net 1) (tstamp 32C8FC0))
  (segment (start 143.2051 95.3466) (end 143.2051 95.8866) (width 0.1524) (layer Top) (net 1) (tstamp 32C9050))
  (segment (start 147.7771 106.7091) (end 147.828 106.76) (width 0.25) (layer Top) (net 1))
  (segment (start 147.828 106.76) (end 147.828 107.95) (width 0.25) (layer Top) (net 1))
  (segment (start 147.828 107.95) (end 148.336 108.458) (width 0.25) (layer Top) (net 1))
  (segment (start 148.336 108.458) (end 149.352 108.458) (width 0.25) (layer Top) (net 1))
  (segment (start 149.352 108.458) (end 149.352 109.728) (width 0.25) (layer Top) (net 1))
  (segment (start 149.352 109.728) (end 151.892 109.728) (width 0.25) (layer Top) (net 1))
  (segment (start 147.7771 105.3591) (end 145.3389 105.3591) (width 0.25) (layer Top) (net 1))
  (segment (start 147.7771 100.4266) (end 147.7771 105.3591) (width 0.25) (layer Top) (net 1))
  (segment (start 147.7771 105.3591) (end 147.7771 106.7091) (width 0.25) (layer Top) (net 1))
  (segment (start 145.3389 105.3591) (end 145.034 105.664) (width 0.25) (layer Top) (net 1))
  (segment (start 145.034 108.966) (end 144.272 109.728) (width 0.25) (layer Top) (net 1))
  (segment (start 145.034 105.664) (end 145.034 108.966) (width 0.25) (layer Top) (net 1))
  (segment (start 154.8891 92.8066) (end 153.8091 93.8866) (width 0.1524) (layer Bottom) (net 2) (tstamp 32C9710))
  (segment (start 153.8091 93.8866) (end 152.3491 93.8866) (width 0.1524) (layer Bottom) (net 2) (tstamp 32C97A0))
  (segment (start 152.3491 93.8866) (end 146.7611 99.4746) (width 0.1524) (layer Bottom) (net 2) (tstamp 32C9830))
  (segment (start 146.7611 99.4746) (end 146.7611 101.9506) (width 0.1524) (layer Bottom) (net 2) (tstamp 32C98C0))
  (via (at 146.7611 101.9506) (size 0.7564) (drill 0.35) (layers Top Bottom) (net 2) (tstamp 32C9950))
  (via (at 153.67 111.506) (size 0.7564) (drill 0.35) (layers Top Bottom) (net 2) (tstamp 32C9C20))
  (segment (start 146.7611 103.9431) (end 146.878 104.06) (width 0.25) (layer Top) (net 2))
  (segment (start 146.7611 101.9506) (end 146.7611 103.9431) (width 0.25) (layer Top) (net 2))
  (segment (start 151.989 111.506) (end 151.892 111.603) (width 0.25) (layer Top) (net 2))
  (segment (start 153.67 111.506) (end 151.989 111.506) (width 0.25) (layer Top) (net 2))
  (segment (start 146.7611 104.5971) (end 153.67 111.506) (width 0.25) (layer Bottom) (net 2))
  (segment (start 146.7611 101.9506) (end 146.7611 104.5971) (width 0.25) (layer Bottom) (net 2))
  (segment (start 150.876 112.619) (end 150.876 116.078) (width 0.25) (layer Top) (net 2))
  (segment (start 151.892 111.603) (end 150.876 112.619) (width 0.25) (layer Top) (net 2))
  (segment (start 148.7271 103.6926) (end 148.7271 97.5666) (width 0.1524) (layer Top) (net 14) (tstamp 336AEB0))
  (segment (start 148.7271 97.5666) (end 148.5391 97.5666) (width 0.1524) (layer Top) (net 14) (tstamp 336AF40))
  (segment (start 148.5391 95.6666) (end 148.5391 92.8066) (width 0.1524) (layer Top) (net 6) (tstamp 32FE1C0))
  (segment (start 148.5391 92.8066) (end 149.8091 91.5366) (width 0.1524) (layer Top) (net 6) (tstamp 32FE250))
  (segment (start 148.5391 95.6666) (end 152.1291 95.6666) (width 0.1524) (layer Top) (net 6) (tstamp 32FE2E0))
  (segment (start 152.1291 95.6666) (end 152.3491 95.8866) (width 0.1524) (layer Top) (net 6) (tstamp 32FE370))
  (segment (start 152.3491 95.8866) (end 154.3491 95.8866) (width 0.1524) (layer Top) (net 6) (tstamp 32FE400))
  (segment (start 154.3491 95.8866) (end 154.8891 95.3466) (width 0.1524) (layer Top) (net 6) (tstamp 32FE490))
  (segment (start 149.7583 91.181) (end 147.3199 91.181) (width 0.1524) (layer Top) (net 6) (tstamp 32FE520))
  (segment (start 147.3199 91.181) (end 147.2691 91.2166) (width 0.1524) (layer Top) (net 6) (tstamp 32FE5B0))
  (segment (start 149.7583 91.181) (end 149.8091 91.2166) (width 0.1524) (layer Top) (net 6) (tstamp 32FE640))
  (segment (start 149.7583 91.4858) (end 149.7583 91.3334) (width 0.1524) (layer Top) (net 6) (tstamp 32FE6D0))
  (segment (start 149.7583 91.3334) (end 149.8091 91.2166) (width 0.1524) (layer Top) (net 6) (tstamp 32FE760))
  (segment (start 149.7583 91.4858) (end 149.8091 91.5366) (width 0.1524) (layer Top) (net 6) (tstamp 32FE7F0))
  (segment (start 154.8891 97.8866) (end 152.3491 97.8866) (width 0.1524) (layer Bottom) (net 5) (tstamp 32FEA30))
  (segment (start 154.8891 100.4266) (end 154.3491 99.8866) (width 0.1524) (layer Bottom) (net 4) (tstamp 32FEC70))
  (segment (start 154.3491 99.8866) (end 152.3491 99.8866) (width 0.1524) (layer Bottom) (net 4) (tstamp 32FED00))
  (segment (start 152.3491 101.8866) (end 153.8091 101.8866) (width 0.1524) (layer Bottom) (net 3) (tstamp 32FEF40))
  (segment (start 153.8091 101.8866) (end 154.8891 102.9666) (width 0.1524) (layer Bottom) (net 3) (tstamp 32FEFD0))
  (segment (start 144.7291 101.8866) (end 143.2691 101.8866) (width 0.1524) (layer Bottom) (net 7) (tstamp 32FF210))
  (segment (start 143.2691 101.8866) (end 142.1891 102.9666) (width 0.1524) (layer Bottom) (net 7) (tstamp 32FF2A0))
  (segment (start 144.7291 99.8866) (end 142.7291 99.8866) (width 0.1524) (layer Bottom) (net 8) (tstamp 32FF4E0))
  (segment (start 142.7291 99.8866) (end 142.1891 100.4266) (width 0.1524) (layer Bottom) (net 8) (tstamp 32FF570))
  (segment (start 142.1891 97.8866) (end 144.7291 97.8866) (width 0.1524) (layer Bottom) (net 9) (tstamp 32FF7B0))
  (segment (start 144.7291 93.8866) (end 143.2691 93.8866) (width 0.1524) (layer Bottom) (net 10) (tstamp 32FF9F0))
  (segment (start 143.2691 93.8866) (end 142.1891 92.8066) (width 0.1524) (layer Bottom) (net 10) (tstamp 32FFA80))
  (segment (start 149.352 111.603) (end 146.812 111.603) (width 0.25) (layer Top) (net 11))
  (segment (start 148.376 113.167) (end 148.376 116.078) (width 0.25) (layer Top) (net 11))
  (segment (start 146.812 111.603) (end 148.376 113.167) (width 0.25) (layer Top) (net 11))
  (segment (start 145.876 113.207) (end 145.876 116.078) (width 0.25) (layer Top) (net 12))
  (segment (start 144.272 111.603) (end 145.876 113.207) (width 0.25) (layer Top) (net 12))
  (segment (start 146.812 106.826) (end 146.878 106.76) (width 0.25) (layer Top) (net 13))
  (segment (start 146.812 109.728) (end 146.812 106.826) (width 0.25) (layer Top) (net 13))
  (segment (start 148.778 106.76) (end 148.778 104.06) (width 0.25) (layer Top) (net 14))

  (zone (net 1) (net_name GND) (layer Top) (tstamp 5EF8B312) (hatch edge 0.508)
    (priority 6)
    (connect_pads (clearance 0.3048))
    (min_thickness 0.0762)
    (fill yes (arc_segments 32) (thermal_gap 0.2024) (thermal_bridge_width 0.2024))
    (polygon
      (pts
        (xy 156.21 122.174) (xy 140.716 122.174) (xy 140.716 87.63) (xy 156.21 87.63)
      )
    )
    (filled_polygon
      (pts
        (xy 156.1719 122.1359) (xy 140.7541 122.1359) (xy 140.7541 111.35925) (xy 143.227441 111.35925) (xy 143.227441 111.84675)
        (xy 143.238745 111.961523) (xy 143.272223 112.071886) (xy 143.326589 112.173597) (xy 143.399753 112.262747) (xy 143.488903 112.335911)
        (xy 143.590614 112.390277) (xy 143.700977 112.423755) (xy 143.81575 112.435059) (xy 144.442349 112.435059) (xy 145.4081 113.40081)
        (xy 145.408101 114.758441) (xy 145.276 114.758441) (xy 145.160007 114.769865) (xy 145.048472 114.803699) (xy 144.945681 114.858642)
        (xy 144.855583 114.932583) (xy 144.781642 115.022681) (xy 144.726699 115.125472) (xy 144.692865 115.237007) (xy 144.681441 115.353)
        (xy 144.681441 116.803) (xy 144.692865 116.918993) (xy 144.726699 117.030528) (xy 144.781642 117.133319) (xy 144.855583 117.223417)
        (xy 144.945681 117.297358) (xy 145.048472 117.352301) (xy 145.160007 117.386135) (xy 145.276 117.397559) (xy 146.476 117.397559)
        (xy 146.591993 117.386135) (xy 146.703528 117.352301) (xy 146.806319 117.297358) (xy 146.896417 117.223417) (xy 146.970358 117.133319)
        (xy 147.025301 117.030528) (xy 147.059135 116.918993) (xy 147.070559 116.803) (xy 147.070559 115.353) (xy 147.059135 115.237007)
        (xy 147.025301 115.125472) (xy 146.970358 115.022681) (xy 146.896417 114.932583) (xy 146.806319 114.858642) (xy 146.703528 114.803699)
        (xy 146.591993 114.769865) (xy 146.476 114.758441) (xy 146.3439 114.758441) (xy 146.3439 113.229969) (xy 146.346162 113.207)
        (xy 146.3439 113.184031) (xy 146.3439 113.184023) (xy 146.337129 113.115276) (xy 146.310374 113.027076) (xy 146.266926 112.945791)
        (xy 146.208455 112.874545) (xy 146.19061 112.8599) (xy 145.302224 111.971514) (xy 145.305255 111.961523) (xy 145.316559 111.84675)
        (xy 145.316559 111.35925) (xy 145.767441 111.35925) (xy 145.767441 111.84675) (xy 145.778745 111.961523) (xy 145.812223 112.071886)
        (xy 145.866589 112.173597) (xy 145.939753 112.262747) (xy 146.028903 112.335911) (xy 146.130614 112.390277) (xy 146.240977 112.423755)
        (xy 146.35575 112.435059) (xy 146.982349 112.435059) (xy 147.9081 113.360811) (xy 147.908101 114.850483) (xy 147.710054 114.956341)
        (xy 147.528412 115.105412) (xy 147.379341 115.287055) (xy 147.268572 115.494289) (xy 147.200361 115.719152) (xy 147.1831 115.894407)
        (xy 147.1831 116.261594) (xy 147.200361 116.436849) (xy 147.268572 116.661712) (xy 147.379341 116.868946) (xy 147.528413 117.050588)
        (xy 147.710055 117.199659) (xy 147.917289 117.310428) (xy 148.142152 117.378639) (xy 148.376 117.401671) (xy 148.609849 117.378639)
        (xy 148.834712 117.310428) (xy 149.041946 117.199659) (xy 149.223588 117.050588) (xy 149.372659 116.868945) (xy 149.483428 116.661711)
        (xy 149.551639 116.436848) (xy 149.5689 116.261593) (xy 149.5689 115.894407) (xy 149.6831 115.894407) (xy 149.6831 116.261594)
        (xy 149.700361 116.436849) (xy 149.768572 116.661712) (xy 149.879341 116.868946) (xy 150.028413 117.050588) (xy 150.210055 117.199659)
        (xy 150.417289 117.310428) (xy 150.642152 117.378639) (xy 150.876 117.401671) (xy 151.109849 117.378639) (xy 151.334712 117.310428)
        (xy 151.541946 117.199659) (xy 151.723588 117.050588) (xy 151.872659 116.868945) (xy 151.983428 116.661711) (xy 152.051639 116.436848)
        (xy 152.0689 116.261593) (xy 152.0689 115.894406) (xy 152.051639 115.719151) (xy 151.983428 115.494288) (xy 151.872659 115.287054)
        (xy 151.723588 115.105412) (xy 151.541945 114.956341) (xy 151.3439 114.850484) (xy 151.3439 112.81281) (xy 151.721652 112.435059)
        (xy 152.34825 112.435059) (xy 152.463023 112.423755) (xy 152.573386 112.390277) (xy 152.675097 112.335911) (xy 152.764247 112.262747)
        (xy 152.837411 112.173597) (xy 152.891777 112.071886) (xy 152.921501 111.9739) (xy 153.118111 111.9739) (xy 153.210326 112.066115)
        (xy 153.328431 112.14503) (xy 153.459663 112.199388) (xy 153.598978 112.2271) (xy 153.741022 112.2271) (xy 153.880337 112.199388)
        (xy 154.011569 112.14503) (xy 154.129674 112.066115) (xy 154.230115 111.965674) (xy 154.30903 111.847569) (xy 154.363388 111.716337)
        (xy 154.3911 111.577022) (xy 154.3911 111.434978) (xy 154.363388 111.295663) (xy 154.30903 111.164431) (xy 154.230115 111.046326)
        (xy 154.129674 110.945885) (xy 154.011569 110.86697) (xy 153.880337 110.812612) (xy 153.741022 110.7849) (xy 153.598978 110.7849)
        (xy 153.459663 110.812612) (xy 153.328431 110.86697) (xy 153.210326 110.945885) (xy 153.118111 111.0381) (xy 152.840456 111.0381)
        (xy 152.837411 111.032403) (xy 152.764247 110.943253) (xy 152.675097 110.870089) (xy 152.573386 110.815723) (xy 152.463023 110.782245)
        (xy 152.34825 110.770941) (xy 151.43575 110.770941) (xy 151.320977 110.782245) (xy 151.210614 110.815723) (xy 151.108903 110.870089)
        (xy 151.019753 110.943253) (xy 150.946589 111.032403) (xy 150.892223 111.134114) (xy 150.858745 111.244477) (xy 150.847441 111.35925)
        (xy 150.847441 111.84675) (xy 150.858745 111.961523) (xy 150.861776 111.971514) (xy 150.561391 112.271899) (xy 150.543545 112.286545)
        (xy 150.485074 112.357792) (xy 150.441626 112.439077) (xy 150.414871 112.527277) (xy 150.4081 112.596024) (xy 150.4081 112.596031)
        (xy 150.405838 112.619) (xy 150.4081 112.641969) (xy 150.408101 114.850483) (xy 150.210054 114.956341) (xy 150.028412 115.105412)
        (xy 149.879341 115.287055) (xy 149.768572 115.494289) (xy 149.700361 115.719152) (xy 149.6831 115.894407) (xy 149.5689 115.894407)
        (xy 149.5689 115.894406) (xy 149.551639 115.719151) (xy 149.483428 115.494288) (xy 149.372659 115.287054) (xy 149.223588 115.105412)
        (xy 149.041945 114.956341) (xy 148.8439 114.850484) (xy 148.8439 113.189968) (xy 148.846162 113.166999) (xy 148.8439 113.14403)
        (xy 148.8439 113.144023) (xy 148.837129 113.075276) (xy 148.810374 112.987076) (xy 148.766926 112.905791) (xy 148.75593 112.892392)
        (xy 148.723102 112.852391) (xy 148.723097 112.852386) (xy 148.708455 112.834545) (xy 148.690615 112.819904) (xy 147.941611 112.0709)
        (xy 148.351924 112.0709) (xy 148.352223 112.071886) (xy 148.406589 112.173597) (xy 148.479753 112.262747) (xy 148.568903 112.335911)
        (xy 148.670614 112.390277) (xy 148.780977 112.423755) (xy 148.89575 112.435059) (xy 149.80825 112.435059) (xy 149.923023 112.423755)
        (xy 150.033386 112.390277) (xy 150.135097 112.335911) (xy 150.224247 112.262747) (xy 150.297411 112.173597) (xy 150.351777 112.071886)
        (xy 150.385255 111.961523) (xy 150.396559 111.84675) (xy 150.396559 111.35925) (xy 150.385255 111.244477) (xy 150.351777 111.134114)
        (xy 150.297411 111.032403) (xy 150.224247 110.943253) (xy 150.135097 110.870089) (xy 150.033386 110.815723) (xy 149.923023 110.782245)
        (xy 149.80825 110.770941) (xy 148.89575 110.770941) (xy 148.780977 110.782245) (xy 148.670614 110.815723) (xy 148.568903 110.870089)
        (xy 148.479753 110.943253) (xy 148.406589 111.032403) (xy 148.352223 111.134114) (xy 148.351924 111.1351) (xy 147.812076 111.1351)
        (xy 147.811777 111.134114) (xy 147.757411 111.032403) (xy 147.684247 110.943253) (xy 147.595097 110.870089) (xy 147.493386 110.815723)
        (xy 147.383023 110.782245) (xy 147.26825 110.770941) (xy 146.35575 110.770941) (xy 146.240977 110.782245) (xy 146.130614 110.815723)
        (xy 146.028903 110.870089) (xy 145.939753 110.943253) (xy 145.866589 111.032403) (xy 145.812223 111.134114) (xy 145.778745 111.244477)
        (xy 145.767441 111.35925) (xy 145.316559 111.35925) (xy 145.305255 111.244477) (xy 145.271777 111.134114) (xy 145.217411 111.032403)
        (xy 145.144247 110.943253) (xy 145.055097 110.870089) (xy 144.953386 110.815723) (xy 144.843023 110.782245) (xy 144.72825 110.770941)
        (xy 143.81575 110.770941) (xy 143.700977 110.782245) (xy 143.590614 110.815723) (xy 143.488903 110.870089) (xy 143.399753 110.943253)
        (xy 143.326589 111.032403) (xy 143.272223 111.134114) (xy 143.238745 111.244477) (xy 143.227441 111.35925) (xy 140.7541 111.35925)
        (xy 140.7541 110.2155) (xy 143.330336 110.2155) (xy 143.33498 110.262646) (xy 143.348732 110.307981) (xy 143.371064 110.349761)
        (xy 143.401118 110.386382) (xy 143.437739 110.416436) (xy 143.479519 110.438768) (xy 143.524854 110.45252) (xy 143.572 110.457164)
        (xy 144.148775 110.456) (xy 144.2089 110.395875) (xy 144.2089 109.7911) (xy 144.3351 109.7911) (xy 144.3351 110.395875)
        (xy 144.395225 110.456) (xy 144.972 110.457164) (xy 145.019146 110.45252) (xy 145.064481 110.438768) (xy 145.106261 110.416436)
        (xy 145.142882 110.386382) (xy 145.172936 110.349761) (xy 145.195268 110.307981) (xy 145.20902 110.262646) (xy 145.213664 110.2155)
        (xy 145.2125 109.851225) (xy 145.152375 109.7911) (xy 144.3351 109.7911) (xy 144.2089 109.7911) (xy 143.391625 109.7911)
        (xy 143.3315 109.851225) (xy 143.330336 110.2155) (xy 140.7541 110.2155) (xy 140.7541 109.2405) (xy 143.330336 109.2405)
        (xy 143.3315 109.604775) (xy 143.391625 109.6649) (xy 144.2089 109.6649) (xy 144.2089 109.060125) (xy 144.3351 109.060125)
        (xy 144.3351 109.6649) (xy 145.152375 109.6649) (xy 145.2125 109.604775) (xy 145.212885 109.48425) (xy 145.767441 109.48425)
        (xy 145.767441 109.97175) (xy 145.778745 110.086523) (xy 145.812223 110.196886) (xy 145.866589 110.298597) (xy 145.939753 110.387747)
        (xy 146.028903 110.460911) (xy 146.130614 110.515277) (xy 146.240977 110.548755) (xy 146.35575 110.560059) (xy 147.26825 110.560059)
        (xy 147.383023 110.548755) (xy 147.493386 110.515277) (xy 147.595097 110.460911) (xy 147.684247 110.387747) (xy 147.757411 110.298597)
        (xy 147.801827 110.2155) (xy 148.410336 110.2155) (xy 148.41498 110.262646) (xy 148.428732 110.307981) (xy 148.451064 110.349761)
        (xy 148.481118 110.386382) (xy 148.517739 110.416436) (xy 148.559519 110.438768) (xy 148.604854 110.45252) (xy 148.652 110.457164)
        (xy 149.228775 110.456) (xy 149.2889 110.395875) (xy 149.2889 109.7911) (xy 149.4151 109.7911) (xy 149.4151 110.395875)
        (xy 149.475225 110.456) (xy 150.052 110.457164) (xy 150.099146 110.45252) (xy 150.144481 110.438768) (xy 150.186261 110.416436)
        (xy 150.222882 110.386382) (xy 150.252936 110.349761) (xy 150.275268 110.307981) (xy 150.28902 110.262646) (xy 150.293664 110.2155)
        (xy 150.950336 110.2155) (xy 150.95498 110.262646) (xy 150.968732 110.307981) (xy 150.991064 110.349761) (xy 151.021118 110.386382)
        (xy 151.057739 110.416436) (xy 151.099519 110.438768) (xy 151.144854 110.45252) (xy 151.192 110.457164) (xy 151.768775 110.456)
        (xy 151.8289 110.395875) (xy 151.8289 109.7911) (xy 151.9551 109.7911) (xy 151.9551 110.395875) (xy 152.015225 110.456)
        (xy 152.592 110.457164) (xy 152.639146 110.45252) (xy 152.684481 110.438768) (xy 152.726261 110.416436) (xy 152.762882 110.386382)
        (xy 152.792936 110.349761) (xy 152.815268 110.307981) (xy 152.82902 110.262646) (xy 152.833664 110.2155) (xy 152.8325 109.851225)
        (xy 152.772375 109.7911) (xy 151.9551 109.7911) (xy 151.8289 109.7911) (xy 151.011625 109.7911) (xy 150.9515 109.851225)
        (xy 150.950336 110.2155) (xy 150.293664 110.2155) (xy 150.2925 109.851225) (xy 150.232375 109.7911) (xy 149.4151 109.7911)
        (xy 149.2889 109.7911) (xy 148.471625 109.7911) (xy 148.4115 109.851225) (xy 148.410336 110.2155) (xy 147.801827 110.2155)
        (xy 147.811777 110.196886) (xy 147.845255 110.086523) (xy 147.856559 109.97175) (xy 147.856559 109.48425) (xy 147.845255 109.369477)
        (xy 147.811777 109.259114) (xy 147.801828 109.2405) (xy 148.410336 109.2405) (xy 148.4115 109.604775) (xy 148.471625 109.6649)
        (xy 149.2889 109.6649) (xy 149.2889 109.060125) (xy 149.4151 109.060125) (xy 149.4151 109.6649) (xy 150.232375 109.6649)
        (xy 150.2925 109.604775) (xy 150.293664 109.2405) (xy 150.950336 109.2405) (xy 150.9515 109.604775) (xy 151.011625 109.6649)
        (xy 151.8289 109.6649) (xy 151.8289 109.060125) (xy 151.9551 109.060125) (xy 151.9551 109.6649) (xy 152.772375 109.6649)
        (xy 152.8325 109.604775) (xy 152.833664 109.2405) (xy 152.82902 109.193354) (xy 152.815268 109.148019) (xy 152.792936 109.106239)
        (xy 152.762882 109.069618) (xy 152.726261 109.039564) (xy 152.684481 109.017232) (xy 152.639146 109.00348) (xy 152.592 108.998836)
        (xy 152.015225 109) (xy 151.9551 109.060125) (xy 151.8289 109.060125) (xy 151.768775 109) (xy 151.192 108.998836)
        (xy 151.144854 109.00348) (xy 151.099519 109.017232) (xy 151.057739 109.039564) (xy 151.021118 109.069618) (xy 150.991064 109.106239)
        (xy 150.968732 109.148019) (xy 150.95498 109.193354) (xy 150.950336 109.2405) (xy 150.293664 109.2405) (xy 150.28902 109.193354)
        (xy 150.275268 109.148019) (xy 150.252936 109.106239) (xy 150.222882 109.069618) (xy 150.186261 109.039564) (xy 150.144481 109.017232)
        (xy 150.099146 109.00348) (xy 150.052 108.998836) (xy 149.475225 109) (xy 149.4151 109.060125) (xy 149.2889 109.060125)
        (xy 149.228775 109) (xy 148.652 108.998836) (xy 148.604854 109.00348) (xy 148.559519 109.017232) (xy 148.517739 109.039564)
        (xy 148.481118 109.069618) (xy 148.451064 109.106239) (xy 148.428732 109.148019) (xy 148.41498 109.193354) (xy 148.410336 109.2405)
        (xy 147.801828 109.2405) (xy 147.757411 109.157403) (xy 147.684247 109.068253) (xy 147.595097 108.995089) (xy 147.493386 108.940723)
        (xy 147.383023 108.907245) (xy 147.2799 108.897088) (xy 147.2799 107.875002) (xy 147.334857 107.858331) (xy 147.394427 107.82649)
        (xy 147.44664 107.78364) (xy 147.452827 107.776102) (xy 147.455854 107.77702) (xy 147.503 107.781664) (xy 147.704775 107.7805)
        (xy 147.7649 107.720375) (xy 147.7649 106.8231) (xy 147.7449 106.8231) (xy 147.7449 106.6969) (xy 147.7649 106.6969)
        (xy 147.7649 105.799625) (xy 147.704775 105.7395) (xy 147.503 105.738336) (xy 147.455854 105.74298) (xy 147.452827 105.743898)
        (xy 147.44664 105.73636) (xy 147.394427 105.69351) (xy 147.334857 105.661669) (xy 147.27022 105.642062) (xy 147.203 105.635441)
        (xy 146.553 105.635441) (xy 146.48578 105.642062) (xy 146.421143 105.661669) (xy 146.361573 105.69351) (xy 146.30936 105.73636)
        (xy 146.26651 105.788573) (xy 146.234669 105.848143) (xy 146.215062 105.91278) (xy 146.208441 105.98) (xy 146.208441 107.54)
        (xy 146.215062 107.60722) (xy 146.234669 107.671857) (xy 146.26651 107.731427) (xy 146.30936 107.78364) (xy 146.344101 107.812151)
        (xy 146.3441 108.897088) (xy 146.240977 108.907245) (xy 146.130614 108.940723) (xy 146.028903 108.995089) (xy 145.939753 109.068253)
        (xy 145.866589 109.157403) (xy 145.812223 109.259114) (xy 145.778745 109.369477) (xy 145.767441 109.48425) (xy 145.212885 109.48425)
        (xy 145.213664 109.2405) (xy 145.20902 109.193354) (xy 145.195268 109.148019) (xy 145.172936 109.106239) (xy 145.142882 109.069618)
        (xy 145.106261 109.039564) (xy 145.064481 109.017232) (xy 145.019146 109.00348) (xy 144.972 108.998836) (xy 144.395225 109)
        (xy 144.3351 109.060125) (xy 144.2089 109.060125) (xy 144.148775 109) (xy 143.572 108.998836) (xy 143.524854 109.00348)
        (xy 143.479519 109.017232) (xy 143.437739 109.039564) (xy 143.401118 109.069618) (xy 143.371064 109.106239) (xy 143.348732 109.148019)
        (xy 143.33498 109.193354) (xy 143.330336 109.2405) (xy 140.7541 109.2405) (xy 140.7541 106.634504) (xy 141.38138 106.634504)
        (xy 141.38138 106.918696) (xy 141.436823 107.197426) (xy 141.545578 107.459984) (xy 141.703466 107.696281) (xy 141.904419 107.897234)
        (xy 142.140716 108.055122) (xy 142.403274 108.163877) (xy 142.682004 108.21932) (xy 142.966196 108.21932) (xy 143.244926 108.163877)
        (xy 143.507484 108.055122) (xy 143.743781 107.897234) (xy 143.944734 107.696281) (xy 144.102622 107.459984) (xy 144.211377 107.197426)
        (xy 144.26682 106.918696) (xy 144.26682 106.634504) (xy 144.211377 106.355774) (xy 144.102622 106.093216) (xy 143.944734 105.856919)
        (xy 143.743781 105.655966) (xy 143.507484 105.498078) (xy 143.244926 105.389323) (xy 142.966196 105.33388) (xy 142.682004 105.33388)
        (xy 142.403274 105.389323) (xy 142.140716 105.498078) (xy 141.904419 105.655966) (xy 141.703466 105.856919) (xy 141.545578 106.093216)
        (xy 141.436823 106.355774) (xy 141.38138 106.634504) (xy 140.7541 106.634504) (xy 140.7541 102.858565) (xy 141.0922 102.858565)
        (xy 141.0922 103.074635) (xy 141.134354 103.286554) (xy 141.21704 103.486177) (xy 141.337082 103.665833) (xy 141.489867 103.818618)
        (xy 141.669523 103.93866) (xy 141.869146 104.021346) (xy 142.081065 104.0635) (xy 142.297135 104.0635) (xy 142.509054 104.021346)
        (xy 142.708677 103.93866) (xy 142.888333 103.818618) (xy 143.041118 103.665833) (xy 143.16116 103.486177) (xy 143.243846 103.286554)
        (xy 143.286 103.074635) (xy 143.286 102.858565) (xy 143.243846 102.646646) (xy 143.16116 102.447023) (xy 143.041118 102.267367)
        (xy 142.888333 102.114582) (xy 142.708677 101.99454) (xy 142.509054 101.911854) (xy 142.297135 101.8697) (xy 142.081065 101.8697)
        (xy 141.869146 101.911854) (xy 141.669523 101.99454) (xy 141.489867 102.114582) (xy 141.337082 102.267367) (xy 141.21704 102.447023)
        (xy 141.134354 102.646646) (xy 141.0922 102.858565) (xy 140.7541 102.858565) (xy 140.7541 100.318565) (xy 141.0922 100.318565)
        (xy 141.0922 100.534635) (xy 141.134354 100.746554) (xy 141.21704 100.946177) (xy 141.337082 101.125833) (xy 141.489867 101.278618)
        (xy 141.669523 101.39866) (xy 141.869146 101.481346) (xy 142.081065 101.5235) (xy 142.297135 101.5235) (xy 142.509054 101.481346)
        (xy 142.708677 101.39866) (xy 142.888333 101.278618) (xy 143.041118 101.125833) (xy 143.16116 100.946177) (xy 143.243846 100.746554)
        (xy 143.286 100.534635) (xy 143.286 100.318565) (xy 143.243846 100.106646) (xy 143.16116 99.907023) (xy 143.041118 99.727367)
        (xy 142.888333 99.574582) (xy 142.708677 99.45454) (xy 142.509054 99.371854) (xy 142.297135 99.3297) (xy 142.081065 99.3297)
        (xy 141.869146 99.371854) (xy 141.669523 99.45454) (xy 141.489867 99.574582) (xy 141.337082 99.727367) (xy 141.21704 99.907023)
        (xy 141.134354 100.106646) (xy 141.0922 100.318565) (xy 140.7541 100.318565) (xy 140.7541 97.778565) (xy 141.0922 97.778565)
        (xy 141.0922 97.994635) (xy 141.134354 98.206554) (xy 141.21704 98.406177) (xy 141.337082 98.585833) (xy 141.489867 98.738618)
        (xy 141.669523 98.85866) (xy 141.869146 98.941346) (xy 142.081065 98.9835) (xy 142.297135 98.9835) (xy 142.509054 98.941346)
        (xy 142.708677 98.85866) (xy 142.888333 98.738618) (xy 143.041118 98.585833) (xy 143.16116 98.406177) (xy 143.243846 98.206554)
        (xy 143.286 97.994635) (xy 143.286 97.778565) (xy 143.255602 97.625746) (xy 143.7621 97.625746) (xy 143.7621 97.826254)
        (xy 143.801218 98.02291) (xy 143.877949 98.208156) (xy 143.989346 98.374873) (xy 144.131127 98.516654) (xy 144.297844 98.628051)
        (xy 144.48309 98.704782) (xy 144.589758 98.726) (xy 144.48309 98.747218) (xy 144.297844 98.823949) (xy 144.131127 98.935346)
        (xy 143.989346 99.077127) (xy 143.877949 99.243844) (xy 143.801218 99.42909) (xy 143.7621 99.625746) (xy 143.7621 99.826254)
        (xy 143.801218 100.02291) (xy 143.877949 100.208156) (xy 143.989346 100.374873) (xy 144.131127 100.516654) (xy 144.297844 100.628051)
        (xy 144.48309 100.704782) (xy 144.589758 100.726) (xy 144.48309 100.747218) (xy 144.297844 100.823949) (xy 144.131127 100.935346)
        (xy 143.989346 101.077127) (xy 143.877949 101.243844) (xy 143.801218 101.42909) (xy 143.7621 101.625746) (xy 143.7621 101.826254)
        (xy 143.801218 102.02291) (xy 143.877949 102.208156) (xy 143.989346 102.374873) (xy 144.131127 102.516654) (xy 144.297844 102.628051)
        (xy 144.48309 102.704782) (xy 144.679746 102.7439) (xy 144.880254 102.7439) (xy 145.07691 102.704782) (xy 145.262156 102.628051)
        (xy 145.428873 102.516654) (xy 145.570654 102.374873) (xy 145.682051 102.208156) (xy 145.758782 102.02291) (xy 145.787293 101.879578)
        (xy 146.04 101.879578) (xy 146.04 102.021622) (xy 146.067712 102.160937) (xy 146.12207 102.292169) (xy 146.200985 102.410274)
        (xy 146.2932 102.502489) (xy 146.293201 103.05605) (xy 146.26651 103.088573) (xy 146.234669 103.148143) (xy 146.215062 103.21278)
        (xy 146.208441 103.28) (xy 146.208441 104.84) (xy 146.215062 104.90722) (xy 146.234669 104.971857) (xy 146.26651 105.031427)
        (xy 146.30936 105.08364) (xy 146.361573 105.12649) (xy 146.421143 105.158331) (xy 146.48578 105.177938) (xy 146.553 105.184559)
        (xy 147.203 105.184559) (xy 147.27022 105.177938) (xy 147.334857 105.158331) (xy 147.394427 105.12649) (xy 147.44664 105.08364)
        (xy 147.48949 105.031427) (xy 147.521331 104.971857) (xy 147.540938 104.90722) (xy 147.547559 104.84) (xy 147.547559 103.28)
        (xy 147.540938 103.21278) (xy 147.521331 103.148143) (xy 147.48949 103.088573) (xy 147.44664 103.03636) (xy 147.394427 102.99351)
        (xy 147.334857 102.961669) (xy 147.27022 102.942062) (xy 147.229 102.938002) (xy 147.229 102.502489) (xy 147.321215 102.410274)
        (xy 147.40013 102.292169) (xy 147.454488 102.160937) (xy 147.4822 102.021622) (xy 147.4822 101.879578) (xy 147.454488 101.740263)
        (xy 147.40013 101.609031) (xy 147.321215 101.490926) (xy 147.220774 101.390485) (xy 147.102669 101.31157) (xy 146.971437 101.257212)
        (xy 146.832122 101.2295) (xy 146.690078 101.2295) (xy 146.550763 101.257212) (xy 146.419531 101.31157) (xy 146.301426 101.390485)
        (xy 146.200985 101.490926) (xy 146.12207 101.609031) (xy 146.067712 101.740263) (xy 146.04 101.879578) (xy 145.787293 101.879578)
        (xy 145.7979 101.826254) (xy 145.7979 101.625746) (xy 145.758782 101.42909) (xy 145.682051 101.243844) (xy 145.570654 101.077127)
        (xy 145.428873 100.935346) (xy 145.262156 100.823949) (xy 145.07691 100.747218) (xy 144.970242 100.726) (xy 145.07691 100.704782)
        (xy 145.262156 100.628051) (xy 145.428873 100.516654) (xy 145.570654 100.374873) (xy 145.682051 100.208156) (xy 145.758782 100.02291)
        (xy 145.7979 99.826254) (xy 145.7979 99.625746) (xy 145.758782 99.42909) (xy 145.682051 99.243844) (xy 145.570654 99.077127)
        (xy 145.428873 98.935346) (xy 145.262156 98.823949) (xy 145.07691 98.747218) (xy 144.970242 98.726) (xy 145.07691 98.704782)
        (xy 145.262156 98.628051) (xy 145.428873 98.516654) (xy 145.570654 98.374873) (xy 145.682051 98.208156) (xy 145.758782 98.02291)
        (xy 145.7979 97.826254) (xy 145.7979 97.625746) (xy 145.758782 97.42909) (xy 145.709599 97.31035) (xy 147.494541 97.31035)
        (xy 147.494541 97.79785) (xy 147.505845 97.912623) (xy 147.539323 98.022986) (xy 147.593689 98.124697) (xy 147.666853 98.213847)
        (xy 147.756003 98.287011) (xy 147.857714 98.341377) (xy 147.968077 98.374855) (xy 148.08285 98.386159) (xy 148.308001 98.386159)
        (xy 148.308 102.968694) (xy 148.261573 102.99351) (xy 148.20936 103.03636) (xy 148.16651 103.088573) (xy 148.134669 103.148143)
        (xy 148.115062 103.21278) (xy 148.108441 103.28) (xy 148.108441 104.84) (xy 148.115062 104.90722) (xy 148.134669 104.971857)
        (xy 148.16651 105.031427) (xy 148.20936 105.08364) (xy 148.261573 105.12649) (xy 148.310101 105.152429) (xy 148.3101 105.667571)
        (xy 148.261573 105.69351) (xy 148.20936 105.73636) (xy 148.203173 105.743898) (xy 148.200146 105.74298) (xy 148.153 105.738336)
        (xy 147.951225 105.7395) (xy 147.8911 105.799625) (xy 147.8911 106.6969) (xy 147.9111 106.6969) (xy 147.9111 106.8231)
        (xy 147.8911 106.8231) (xy 147.8911 107.720375) (xy 147.951225 107.7805) (xy 148.153 107.781664) (xy 148.200146 107.77702)
        (xy 148.203173 107.776102) (xy 148.20936 107.78364) (xy 148.261573 107.82649) (xy 148.321143 107.858331) (xy 148.38578 107.877938)
        (xy 148.453 107.884559) (xy 149.103 107.884559) (xy 149.17022 107.877938) (xy 149.234857 107.858331) (xy 149.294427 107.82649)
        (xy 149.34664 107.78364) (xy 149.38949 107.731427) (xy 149.421331 107.671857) (xy 149.440938 107.60722) (xy 149.447559 107.54)
        (xy 149.447559 106.634504) (xy 152.81138 106.634504) (xy 152.81138 106.918696) (xy 152.866823 107.197426) (xy 152.975578 107.459984)
        (xy 153.133466 107.696281) (xy 153.334419 107.897234) (xy 153.570716 108.055122) (xy 153.833274 108.163877) (xy 154.112004 108.21932)
        (xy 154.396196 108.21932) (xy 154.674926 108.163877) (xy 154.937484 108.055122) (xy 155.173781 107.897234) (xy 155.374734 107.696281)
        (xy 155.532622 107.459984) (xy 155.641377 107.197426) (xy 155.69682 106.918696) (xy 155.69682 106.634504) (xy 155.641377 106.355774)
        (xy 155.532622 106.093216) (xy 155.374734 105.856919) (xy 155.173781 105.655966) (xy 154.937484 105.498078) (xy 154.674926 105.389323)
        (xy 154.396196 105.33388) (xy 154.112004 105.33388) (xy 153.833274 105.389323) (xy 153.570716 105.498078) (xy 153.334419 105.655966)
        (xy 153.133466 105.856919) (xy 152.975578 106.093216) (xy 152.866823 106.355774) (xy 152.81138 106.634504) (xy 149.447559 106.634504)
        (xy 149.447559 105.98) (xy 149.440938 105.91278) (xy 149.421331 105.848143) (xy 149.38949 105.788573) (xy 149.34664 105.73636)
        (xy 149.294427 105.69351) (xy 149.2459 105.667572) (xy 149.2459 105.152428) (xy 149.294427 105.12649) (xy 149.34664 105.08364)
        (xy 149.38949 105.031427) (xy 149.421331 104.971857) (xy 149.440938 104.90722) (xy 149.447559 104.84) (xy 149.447559 103.28)
        (xy 149.440938 103.21278) (xy 149.421331 103.148143) (xy 149.38949 103.088573) (xy 149.34664 103.03636) (xy 149.294427 102.99351)
        (xy 149.234857 102.961669) (xy 149.17022 102.942062) (xy 149.1462 102.939696) (xy 149.1462 102.858565) (xy 153.7922 102.858565)
        (xy 153.7922 103.074635) (xy 153.834354 103.286554) (xy 153.91704 103.486177) (xy 154.037082 103.665833) (xy 154.189867 103.818618)
        (xy 154.369523 103.93866) (xy 154.569146 104.021346) (xy 154.781065 104.0635) (xy 154.997135 104.0635) (xy 155.209054 104.021346)
        (xy 155.408677 103.93866) (xy 155.588333 103.818618) (xy 155.741118 103.665833) (xy 155.86116 103.486177) (xy 155.943846 103.286554)
        (xy 155.986 103.074635) (xy 155.986 102.858565) (xy 155.943846 102.646646) (xy 155.86116 102.447023) (xy 155.741118 102.267367)
        (xy 155.588333 102.114582) (xy 155.408677 101.99454) (xy 155.209054 101.911854) (xy 154.997135 101.8697) (xy 154.781065 101.8697)
        (xy 154.569146 101.911854) (xy 154.369523 101.99454) (xy 154.189867 102.114582) (xy 154.037082 102.267367) (xy 153.91704 102.447023)
        (xy 153.834354 102.646646) (xy 153.7922 102.858565) (xy 149.1462 102.858565) (xy 149.1462 98.363911) (xy 149.220486 98.341377)
        (xy 149.322197 98.287011) (xy 149.411347 98.213847) (xy 149.484511 98.124697) (xy 149.538877 98.022986) (xy 149.572355 97.912623)
        (xy 149.583659 97.79785) (xy 149.583659 97.31035) (xy 149.572355 97.195577) (xy 149.538877 97.085214) (xy 149.484511 96.983503)
        (xy 149.411347 96.894353) (xy 149.322197 96.821189) (xy 149.220486 96.766823) (xy 149.110123 96.733345) (xy 148.99535 96.722041)
        (xy 148.08285 96.722041) (xy 147.968077 96.733345) (xy 147.857714 96.766823) (xy 147.756003 96.821189) (xy 147.666853 96.894353)
        (xy 147.593689 96.983503) (xy 147.539323 97.085214) (xy 147.505845 97.195577) (xy 147.494541 97.31035) (xy 145.709599 97.31035)
        (xy 145.682051 97.243844) (xy 145.570654 97.077127) (xy 145.428873 96.935346) (xy 145.262156 96.823949) (xy 145.07691 96.747218)
        (xy 144.880254 96.7081) (xy 144.679746 96.7081) (xy 144.48309 96.747218) (xy 144.297844 96.823949) (xy 144.131127 96.935346)
        (xy 143.989346 97.077127) (xy 143.877949 97.243844) (xy 143.801218 97.42909) (xy 143.7621 97.625746) (xy 143.255602 97.625746)
        (xy 143.243846 97.566646) (xy 143.16116 97.367023) (xy 143.041118 97.187367) (xy 142.888333 97.034582) (xy 142.708677 96.91454)
        (xy 142.509054 96.831854) (xy 142.297135 96.7897) (xy 142.081065 96.7897) (xy 141.869146 96.831854) (xy 141.669523 96.91454)
        (xy 141.489867 97.034582) (xy 141.337082 97.187367) (xy 141.21704 97.367023) (xy 141.134354 97.566646) (xy 141.0922 97.778565)
        (xy 140.7541 97.778565) (xy 140.7541 96.053823) (xy 141.571113 96.053823) (xy 141.65394 96.190536) (xy 141.828867 96.278725)
        (xy 142.017637 96.331093) (xy 142.212997 96.345627) (xy 142.407438 96.321769) (xy 142.593489 96.260436) (xy 142.72426 96.190536)
        (xy 142.807087 96.053823) (xy 142.1891 95.435837) (xy 141.571113 96.053823) (xy 140.7541 96.053823) (xy 140.7541 95.370497)
        (xy 141.190073 95.370497) (xy 141.213931 95.564938) (xy 141.275264 95.750989) (xy 141.345164 95.88176) (xy 141.481877 95.964587)
        (xy 142.099863 95.3466) (xy 142.278337 95.3466) (xy 142.896323 95.964587) (xy 142.951434 95.931198) (xy 143.887793 95.931198)
        (xy 143.924151 96.051069) (xy 144.004014 96.211791) (xy 144.113697 96.353844) (xy 144.248986 96.471769) (xy 144.404682 96.561035)
        (xy 144.574801 96.618211) (xy 144.7169 96.579202) (xy 144.7169 95.7891) (xy 144.8431 95.7891) (xy 144.8431 96.579202)
        (xy 144.985199 96.618211) (xy 145.155318 96.561035) (xy 145.311014 96.471769) (xy 145.446303 96.353844) (xy 145.555986 96.211791)
        (xy 145.635849 96.051069) (xy 145.672207 95.931198) (xy 145.633044 95.7891) (xy 144.8431 95.7891) (xy 144.7169 95.7891)
        (xy 143.926956 95.7891) (xy 143.887793 95.931198) (xy 142.951434 95.931198) (xy 143.033036 95.88176) (xy 143.121225 95.706833)
        (xy 143.172833 95.520802) (xy 143.887793 95.520802) (xy 143.926956 95.6629) (xy 144.7169 95.6629) (xy 144.7169 94.872798)
        (xy 144.8431 94.872798) (xy 144.8431 95.6629) (xy 145.633044 95.6629) (xy 145.672207 95.520802) (xy 145.635849 95.400931)
        (xy 145.555986 95.240209) (xy 145.446303 95.098156) (xy 145.311014 94.980231) (xy 145.155318 94.890965) (xy 144.985199 94.833789)
        (xy 144.8431 94.872798) (xy 144.7169 94.872798) (xy 144.574801 94.833789) (xy 144.404682 94.890965) (xy 144.248986 94.980231)
        (xy 144.113697 95.098156) (xy 144.004014 95.240209) (xy 143.924151 95.400931) (xy 143.887793 95.520802) (xy 143.172833 95.520802)
        (xy 143.173593 95.518063) (xy 143.188127 95.322703) (xy 143.164269 95.128262) (xy 143.102936 94.942211) (xy 143.033036 94.81144)
        (xy 142.896323 94.728613) (xy 142.278337 95.3466) (xy 142.099863 95.3466) (xy 141.481877 94.728613) (xy 141.345164 94.81144)
        (xy 141.256975 94.986367) (xy 141.204607 95.175137) (xy 141.190073 95.370497) (xy 140.7541 95.370497) (xy 140.7541 94.639377)
        (xy 141.571113 94.639377) (xy 142.1891 95.257363) (xy 142.807087 94.639377) (xy 142.72426 94.502664) (xy 142.549333 94.414475)
        (xy 142.360563 94.362107) (xy 142.165203 94.347573) (xy 141.970762 94.371431) (xy 141.784711 94.432764) (xy 141.65394 94.502664)
        (xy 141.571113 94.639377) (xy 140.7541 94.639377) (xy 140.7541 92.698565) (xy 141.0922 92.698565) (xy 141.0922 92.914635)
        (xy 141.134354 93.126554) (xy 141.21704 93.326177) (xy 141.337082 93.505833) (xy 141.489867 93.658618) (xy 141.669523 93.77866)
        (xy 141.869146 93.861346) (xy 142.081065 93.9035) (xy 142.297135 93.9035) (xy 142.509054 93.861346) (xy 142.708677 93.77866)
        (xy 142.888333 93.658618) (xy 143.041118 93.505833) (xy 143.16116 93.326177) (xy 143.243846 93.126554) (xy 143.258874 93.051)
        (xy 143.760441 93.051) (xy 143.760441 94.401) (xy 143.767062 94.46822) (xy 143.786669 94.532857) (xy 143.81851 94.592427)
        (xy 143.86136 94.64464) (xy 143.913573 94.68749) (xy 143.973143 94.719331) (xy 144.03778 94.738938) (xy 144.105 94.745559)
        (xy 145.455 94.745559) (xy 145.52222 94.738938) (xy 145.586857 94.719331) (xy 145.646427 94.68749) (xy 145.69864 94.64464)
        (xy 145.74149 94.592427) (xy 145.773331 94.532857) (xy 145.792938 94.46822) (xy 145.799559 94.401) (xy 145.799559 93.051)
        (xy 145.792938 92.98378) (xy 145.773331 92.919143) (xy 145.74149 92.859573) (xy 145.69864 92.80736) (xy 145.646427 92.76451)
        (xy 145.586857 92.732669) (xy 145.52222 92.713062) (xy 145.455 92.706441) (xy 144.105 92.706441) (xy 144.03778 92.713062)
        (xy 143.973143 92.732669) (xy 143.913573 92.76451) (xy 143.86136 92.80736) (xy 143.81851 92.859573) (xy 143.786669 92.919143)
        (xy 143.767062 92.98378) (xy 143.760441 93.051) (xy 143.258874 93.051) (xy 143.286 92.914635) (xy 143.286 92.698565)
        (xy 143.243846 92.486646) (xy 143.16116 92.287023) (xy 143.041118 92.107367) (xy 142.888333 91.954582) (xy 142.708677 91.83454)
        (xy 142.509054 91.751854) (xy 142.297135 91.7097) (xy 142.081065 91.7097) (xy 141.869146 91.751854) (xy 141.669523 91.83454)
        (xy 141.489867 91.954582) (xy 141.337082 92.107367) (xy 141.21704 92.287023) (xy 141.134354 92.486646) (xy 141.0922 92.698565)
        (xy 140.7541 92.698565) (xy 140.7541 90.124504) (xy 141.00038 90.124504) (xy 141.00038 90.408696) (xy 141.055823 90.687426)
        (xy 141.164578 90.949984) (xy 141.322466 91.186281) (xy 141.523419 91.387234) (xy 141.759716 91.545122) (xy 142.022274 91.653877)
        (xy 142.301004 91.70932) (xy 142.585196 91.70932) (xy 142.863926 91.653877) (xy 143.126484 91.545122) (xy 143.362781 91.387234)
        (xy 143.563734 91.186281) (xy 143.714695 90.96035) (xy 146.224541 90.96035) (xy 146.224541 91.44785) (xy 146.235845 91.562623)
        (xy 146.269323 91.672986) (xy 146.323689 91.774697) (xy 146.396853 91.863847) (xy 146.486003 91.937011) (xy 146.587714 91.991377)
        (xy 146.698077 92.024855) (xy 146.81285 92.036159) (xy 147.72535 92.036159) (xy 147.840123 92.024855) (xy 147.950486 91.991377)
        (xy 148.052197 91.937011) (xy 148.141347 91.863847) (xy 148.214511 91.774697) (xy 148.268877 91.672986) (xy 148.290987 91.6001)
        (xy 148.787213 91.6001) (xy 148.809323 91.672986) (xy 148.863689 91.774697) (xy 148.915354 91.83765) (xy 148.257306 92.495698)
        (xy 148.241319 92.508818) (xy 148.2282 92.524804) (xy 148.188946 92.572635) (xy 148.15003 92.645442) (xy 148.126065 92.724443)
        (xy 148.117973 92.8066) (xy 148.120001 92.82719) (xy 148.12 94.847041) (xy 148.08285 94.847041) (xy 147.968077 94.858345)
        (xy 147.857714 94.891823) (xy 147.756003 94.946189) (xy 147.666853 95.019353) (xy 147.593689 95.108503) (xy 147.539323 95.210214)
        (xy 147.505845 95.320577) (xy 147.494541 95.43535) (xy 147.494541 95.92285) (xy 147.505845 96.037623) (xy 147.539323 96.147986)
        (xy 147.593689 96.249697) (xy 147.666853 96.338847) (xy 147.756003 96.412011) (xy 147.857714 96.466377) (xy 147.968077 96.499855)
        (xy 148.08285 96.511159) (xy 148.99535 96.511159) (xy 149.110123 96.499855) (xy 149.220486 96.466377) (xy 149.322197 96.412011)
        (xy 149.411347 96.338847) (xy 149.484511 96.249697) (xy 149.538877 96.147986) (xy 149.557771 96.0857) (xy 151.447226 96.0857)
        (xy 151.497949 96.208156) (xy 151.609346 96.374873) (xy 151.751127 96.516654) (xy 151.917844 96.628051) (xy 152.10309 96.704782)
        (xy 152.209758 96.726) (xy 152.10309 96.747218) (xy 151.917844 96.823949) (xy 151.751127 96.935346) (xy 151.609346 97.077127)
        (xy 151.497949 97.243844) (xy 151.421218 97.42909) (xy 151.3821 97.625746) (xy 151.3821 97.826254) (xy 151.421218 98.02291)
        (xy 151.497949 98.208156) (xy 151.609346 98.374873) (xy 151.751127 98.516654) (xy 151.917844 98.628051) (xy 152.10309 98.704782)
        (xy 152.209758 98.726) (xy 152.10309 98.747218) (xy 151.917844 98.823949) (xy 151.751127 98.935346) (xy 151.609346 99.077127)
        (xy 151.497949 99.243844) (xy 151.421218 99.42909) (xy 151.3821 99.625746) (xy 151.3821 99.826254) (xy 151.421218 100.02291)
        (xy 151.497949 100.208156) (xy 151.609346 100.374873) (xy 151.751127 100.516654) (xy 151.917844 100.628051) (xy 152.10309 100.704782)
        (xy 152.209758 100.726) (xy 152.10309 100.747218) (xy 151.917844 100.823949) (xy 151.751127 100.935346) (xy 151.609346 101.077127)
        (xy 151.497949 101.243844) (xy 151.421218 101.42909) (xy 151.3821 101.625746) (xy 151.3821 101.826254) (xy 151.421218 102.02291)
        (xy 151.497949 102.208156) (xy 151.609346 102.374873) (xy 151.751127 102.516654) (xy 151.917844 102.628051) (xy 152.10309 102.704782)
        (xy 152.299746 102.7439) (xy 152.500254 102.7439) (xy 152.69691 102.704782) (xy 152.882156 102.628051) (xy 153.048873 102.516654)
        (xy 153.190654 102.374873) (xy 153.302051 102.208156) (xy 153.378782 102.02291) (xy 153.4179 101.826254) (xy 153.4179 101.625746)
        (xy 153.378782 101.42909) (xy 153.302051 101.243844) (xy 153.190654 101.077127) (xy 153.048873 100.935346) (xy 152.882156 100.823949)
        (xy 152.69691 100.747218) (xy 152.590242 100.726) (xy 152.69691 100.704782) (xy 152.882156 100.628051) (xy 153.048873 100.516654)
        (xy 153.190654 100.374873) (xy 153.228277 100.318565) (xy 153.7922 100.318565) (xy 153.7922 100.534635) (xy 153.834354 100.746554)
        (xy 153.91704 100.946177) (xy 154.037082 101.125833) (xy 154.189867 101.278618) (xy 154.369523 101.39866) (xy 154.569146 101.481346)
        (xy 154.781065 101.5235) (xy 154.997135 101.5235) (xy 155.209054 101.481346) (xy 155.408677 101.39866) (xy 155.588333 101.278618)
        (xy 155.741118 101.125833) (xy 155.86116 100.946177) (xy 155.943846 100.746554) (xy 155.986 100.534635) (xy 155.986 100.318565)
        (xy 155.943846 100.106646) (xy 155.86116 99.907023) (xy 155.741118 99.727367) (xy 155.588333 99.574582) (xy 155.408677 99.45454)
        (xy 155.209054 99.371854) (xy 154.997135 99.3297) (xy 154.781065 99.3297) (xy 154.569146 99.371854) (xy 154.369523 99.45454)
        (xy 154.189867 99.574582) (xy 154.037082 99.727367) (xy 153.91704 99.907023) (xy 153.834354 100.106646) (xy 153.7922 100.318565)
        (xy 153.228277 100.318565) (xy 153.302051 100.208156) (xy 153.378782 100.02291) (xy 153.4179 99.826254) (xy 153.4179 99.625746)
        (xy 153.378782 99.42909) (xy 153.302051 99.243844) (xy 153.190654 99.077127) (xy 153.048873 98.935346) (xy 152.882156 98.823949)
        (xy 152.69691 98.747218) (xy 152.590242 98.726) (xy 152.69691 98.704782) (xy 152.882156 98.628051) (xy 153.048873 98.516654)
        (xy 153.190654 98.374873) (xy 153.302051 98.208156) (xy 153.378782 98.02291) (xy 153.4179 97.826254) (xy 153.4179 97.778565)
        (xy 153.7922 97.778565) (xy 153.7922 97.994635) (xy 153.834354 98.206554) (xy 153.91704 98.406177) (xy 154.037082 98.585833)
        (xy 154.189867 98.738618) (xy 154.369523 98.85866) (xy 154.569146 98.941346) (xy 154.781065 98.9835) (xy 154.997135 98.9835)
        (xy 155.209054 98.941346) (xy 155.408677 98.85866) (xy 155.588333 98.738618) (xy 155.741118 98.585833) (xy 155.86116 98.406177)
        (xy 155.943846 98.206554) (xy 155.986 97.994635) (xy 155.986 97.778565) (xy 155.943846 97.566646) (xy 155.86116 97.367023)
        (xy 155.741118 97.187367) (xy 155.588333 97.034582) (xy 155.408677 96.91454) (xy 155.209054 96.831854) (xy 154.997135 96.7897)
        (xy 154.781065 96.7897) (xy 154.569146 96.831854) (xy 154.369523 96.91454) (xy 154.189867 97.034582) (xy 154.037082 97.187367)
        (xy 153.91704 97.367023) (xy 153.834354 97.566646) (xy 153.7922 97.778565) (xy 153.4179 97.778565) (xy 153.4179 97.625746)
        (xy 153.378782 97.42909) (xy 153.302051 97.243844) (xy 153.190654 97.077127) (xy 153.048873 96.935346) (xy 152.882156 96.823949)
        (xy 152.69691 96.747218) (xy 152.590242 96.726) (xy 152.69691 96.704782) (xy 152.882156 96.628051) (xy 153.048873 96.516654)
        (xy 153.190654 96.374873) (xy 153.236874 96.3057) (xy 154.32852 96.3057) (xy 154.3491 96.307727) (xy 154.352639 96.307378)
        (xy 154.369523 96.31866) (xy 154.569146 96.401346) (xy 154.781065 96.4435) (xy 154.997135 96.4435) (xy 155.209054 96.401346)
        (xy 155.408677 96.31866) (xy 155.588333 96.198618) (xy 155.741118 96.045833) (xy 155.86116 95.866177) (xy 155.943846 95.666554)
        (xy 155.986 95.454635) (xy 155.986 95.238565) (xy 155.943846 95.026646) (xy 155.86116 94.827023) (xy 155.741118 94.647367)
        (xy 155.588333 94.494582) (xy 155.408677 94.37454) (xy 155.209054 94.291854) (xy 154.997135 94.2497) (xy 154.781065 94.2497)
        (xy 154.569146 94.291854) (xy 154.369523 94.37454) (xy 154.189867 94.494582) (xy 154.037082 94.647367) (xy 153.91704 94.827023)
        (xy 153.834354 95.026646) (xy 153.7922 95.238565) (xy 153.7922 95.454635) (xy 153.794759 95.4675) (xy 153.386422 95.4675)
        (xy 153.378782 95.42909) (xy 153.302051 95.243844) (xy 153.190654 95.077127) (xy 153.048873 94.935346) (xy 152.882156 94.823949)
        (xy 152.69691 94.747218) (xy 152.68857 94.745559) (xy 153.075 94.745559) (xy 153.14222 94.738938) (xy 153.206857 94.719331)
        (xy 153.266427 94.68749) (xy 153.31864 94.64464) (xy 153.36149 94.592427) (xy 153.393331 94.532857) (xy 153.412938 94.46822)
        (xy 153.419559 94.401) (xy 153.419559 93.051) (xy 153.412938 92.98378) (xy 153.393331 92.919143) (xy 153.36149 92.859573)
        (xy 153.31864 92.80736) (xy 153.266427 92.76451) (xy 153.206857 92.732669) (xy 153.14222 92.713062) (xy 153.075 92.706441)
        (xy 151.725 92.706441) (xy 151.65778 92.713062) (xy 151.593143 92.732669) (xy 151.533573 92.76451) (xy 151.48136 92.80736)
        (xy 151.43851 92.859573) (xy 151.406669 92.919143) (xy 151.387062 92.98378) (xy 151.380441 93.051) (xy 151.380441 94.401)
        (xy 151.387062 94.46822) (xy 151.406669 94.532857) (xy 151.43851 94.592427) (xy 151.48136 94.64464) (xy 151.533573 94.68749)
        (xy 151.593143 94.719331) (xy 151.65778 94.738938) (xy 151.725 94.745559) (xy 152.11143 94.745559) (xy 152.10309 94.747218)
        (xy 151.917844 94.823949) (xy 151.751127 94.935346) (xy 151.609346 95.077127) (xy 151.497949 95.243844) (xy 151.496435 95.2475)
        (xy 149.550187 95.2475) (xy 149.538877 95.210214) (xy 149.484511 95.108503) (xy 149.411347 95.019353) (xy 149.322197 94.946189)
        (xy 149.220486 94.891823) (xy 149.110123 94.858345) (xy 148.99535 94.847041) (xy 148.9582 94.847041) (xy 148.9582 92.980196)
        (xy 149.239831 92.698565) (xy 153.7922 92.698565) (xy 153.7922 92.914635) (xy 153.834354 93.126554) (xy 153.91704 93.326177)
        (xy 154.037082 93.505833) (xy 154.189867 93.658618) (xy 154.369523 93.77866) (xy 154.569146 93.861346) (xy 154.781065 93.9035)
        (xy 154.997135 93.9035) (xy 155.209054 93.861346) (xy 155.408677 93.77866) (xy 155.588333 93.658618) (xy 155.741118 93.505833)
        (xy 155.86116 93.326177) (xy 155.943846 93.126554) (xy 155.986 92.914635) (xy 155.986 92.698565) (xy 155.943846 92.486646)
        (xy 155.86116 92.287023) (xy 155.741118 92.107367) (xy 155.588333 91.954582) (xy 155.408677 91.83454) (xy 155.209054 91.751854)
        (xy 154.997135 91.7097) (xy 154.781065 91.7097) (xy 154.569146 91.751854) (xy 154.369523 91.83454) (xy 154.189867 91.954582)
        (xy 154.037082 92.107367) (xy 153.91704 92.287023) (xy 153.834354 92.486646) (xy 153.7922 92.698565) (xy 149.239831 92.698565)
        (xy 149.902238 92.036159) (xy 150.26535 92.036159) (xy 150.380123 92.024855) (xy 150.490486 91.991377) (xy 150.592197 91.937011)
        (xy 150.681347 91.863847) (xy 150.754511 91.774697) (xy 150.808877 91.672986) (xy 150.842355 91.562623) (xy 150.853659 91.44785)
        (xy 150.853659 90.96035) (xy 150.842355 90.845577) (xy 150.808877 90.735214) (xy 150.754511 90.633503) (xy 150.681347 90.544353)
        (xy 150.592197 90.471189) (xy 150.490486 90.416823) (xy 150.380123 90.383345) (xy 150.26535 90.372041) (xy 149.35285 90.372041)
        (xy 149.238077 90.383345) (xy 149.127714 90.416823) (xy 149.026003 90.471189) (xy 148.936853 90.544353) (xy 148.863689 90.633503)
        (xy 148.809323 90.735214) (xy 148.801228 90.7619) (xy 148.276972 90.7619) (xy 148.268877 90.735214) (xy 148.214511 90.633503)
        (xy 148.141347 90.544353) (xy 148.052197 90.471189) (xy 147.950486 90.416823) (xy 147.840123 90.383345) (xy 147.72535 90.372041)
        (xy 146.81285 90.372041) (xy 146.698077 90.383345) (xy 146.587714 90.416823) (xy 146.486003 90.471189) (xy 146.396853 90.544353)
        (xy 146.323689 90.633503) (xy 146.269323 90.735214) (xy 146.235845 90.845577) (xy 146.224541 90.96035) (xy 143.714695 90.96035)
        (xy 143.721622 90.949984) (xy 143.830377 90.687426) (xy 143.88582 90.408696) (xy 143.88582 90.124504) (xy 153.19238 90.124504)
        (xy 153.19238 90.408696) (xy 153.247823 90.687426) (xy 153.356578 90.949984) (xy 153.514466 91.186281) (xy 153.715419 91.387234)
        (xy 153.951716 91.545122) (xy 154.214274 91.653877) (xy 154.493004 91.70932) (xy 154.777196 91.70932) (xy 155.055926 91.653877)
        (xy 155.318484 91.545122) (xy 155.554781 91.387234) (xy 155.755734 91.186281) (xy 155.913622 90.949984) (xy 156.022377 90.687426)
        (xy 156.07782 90.408696) (xy 156.07782 90.124504) (xy 156.022377 89.845774) (xy 155.913622 89.583216) (xy 155.755734 89.346919)
        (xy 155.554781 89.145966) (xy 155.318484 88.988078) (xy 155.055926 88.879323) (xy 154.777196 88.82388) (xy 154.493004 88.82388)
        (xy 154.214274 88.879323) (xy 153.951716 88.988078) (xy 153.715419 89.145966) (xy 153.514466 89.346919) (xy 153.356578 89.583216)
        (xy 153.247823 89.845774) (xy 153.19238 90.124504) (xy 143.88582 90.124504) (xy 143.830377 89.845774) (xy 143.818293 89.8166)
        (xy 146.327436 89.8166) (xy 146.33208 89.863746) (xy 146.345832 89.909081) (xy 146.368164 89.950861) (xy 146.398218 89.987482)
        (xy 146.434839 90.017536) (xy 146.476619 90.039868) (xy 146.521954 90.05362) (xy 146.5691 90.058264) (xy 147.145875 90.0571)
        (xy 147.206 89.996975) (xy 147.206 89.3922) (xy 147.3322 89.3922) (xy 147.3322 89.996975) (xy 147.392325 90.0571)
        (xy 147.9691 90.058264) (xy 148.016246 90.05362) (xy 148.061581 90.039868) (xy 148.103361 90.017536) (xy 148.139982 89.987482)
        (xy 148.170036 89.950861) (xy 148.192368 89.909081) (xy 148.20612 89.863746) (xy 148.210764 89.8166) (xy 148.867436 89.8166)
        (xy 148.87208 89.863746) (xy 148.885832 89.909081) (xy 148.908164 89.950861) (xy 148.938218 89.987482) (xy 148.974839 90.017536)
        (xy 149.016619 90.039868) (xy 149.061954 90.05362) (xy 149.1091 90.058264) (xy 149.685875 90.0571) (xy 149.746 89.996975)
        (xy 149.746 89.3922) (xy 149.8722 89.3922) (xy 149.8722 89.996975) (xy 149.932325 90.0571) (xy 150.5091 90.058264)
        (xy 150.556246 90.05362) (xy 150.601581 90.039868) (xy 150.643361 90.017536) (xy 150.679982 89.987482) (xy 150.710036 89.950861)
        (xy 150.732368 89.909081) (xy 150.74612 89.863746) (xy 150.750764 89.8166) (xy 150.7496 89.452325) (xy 150.689475 89.3922)
        (xy 149.8722 89.3922) (xy 149.746 89.3922) (xy 148.928725 89.3922) (xy 148.8686 89.452325) (xy 148.867436 89.8166)
        (xy 148.210764 89.8166) (xy 148.2096 89.452325) (xy 148.149475 89.3922) (xy 147.3322 89.3922) (xy 147.206 89.3922)
        (xy 146.388725 89.3922) (xy 146.3286 89.452325) (xy 146.327436 89.8166) (xy 143.818293 89.8166) (xy 143.721622 89.583216)
        (xy 143.563734 89.346919) (xy 143.362781 89.145966) (xy 143.126484 88.988078) (xy 142.863926 88.879323) (xy 142.674281 88.8416)
        (xy 146.327436 88.8416) (xy 146.3286 89.205875) (xy 146.388725 89.266) (xy 147.206 89.266) (xy 147.206 88.661225)
        (xy 147.3322 88.661225) (xy 147.3322 89.266) (xy 148.149475 89.266) (xy 148.2096 89.205875) (xy 148.210764 88.8416)
        (xy 148.867436 88.8416) (xy 148.8686 89.205875) (xy 148.928725 89.266) (xy 149.746 89.266) (xy 149.746 88.661225)
        (xy 149.8722 88.661225) (xy 149.8722 89.266) (xy 150.689475 89.266) (xy 150.7496 89.205875) (xy 150.750764 88.8416)
        (xy 150.74612 88.794454) (xy 150.732368 88.749119) (xy 150.710036 88.707339) (xy 150.679982 88.670718) (xy 150.643361 88.640664)
        (xy 150.601581 88.618332) (xy 150.556246 88.60458) (xy 150.5091 88.599936) (xy 149.932325 88.6011) (xy 149.8722 88.661225)
        (xy 149.746 88.661225) (xy 149.685875 88.6011) (xy 149.1091 88.599936) (xy 149.061954 88.60458) (xy 149.016619 88.618332)
        (xy 148.974839 88.640664) (xy 148.938218 88.670718) (xy 148.908164 88.707339) (xy 148.885832 88.749119) (xy 148.87208 88.794454)
        (xy 148.867436 88.8416) (xy 148.210764 88.8416) (xy 148.20612 88.794454) (xy 148.192368 88.749119) (xy 148.170036 88.707339)
        (xy 148.139982 88.670718) (xy 148.103361 88.640664) (xy 148.061581 88.618332) (xy 148.016246 88.60458) (xy 147.9691 88.599936)
        (xy 147.392325 88.6011) (xy 147.3322 88.661225) (xy 147.206 88.661225) (xy 147.145875 88.6011) (xy 146.5691 88.599936)
        (xy 146.521954 88.60458) (xy 146.476619 88.618332) (xy 146.434839 88.640664) (xy 146.398218 88.670718) (xy 146.368164 88.707339)
        (xy 146.345832 88.749119) (xy 146.33208 88.794454) (xy 146.327436 88.8416) (xy 142.674281 88.8416) (xy 142.585196 88.82388)
        (xy 142.301004 88.82388) (xy 142.022274 88.879323) (xy 141.759716 88.988078) (xy 141.523419 89.145966) (xy 141.322466 89.346919)
        (xy 141.164578 89.583216) (xy 141.055823 89.845774) (xy 141.00038 90.124504) (xy 140.7541 90.124504) (xy 140.7541 87.6681)
        (xy 156.1719 87.6681)
      )
    )
  )
)
